<svg xmlns="http://www.w3.org/2000/svg" xmlns:xlink="http://www.w3.org/1999/xlink" width="86" height="86" viewBox="0 0 86 86">
  <defs>
    <linearGradient id="linear-gradient" x1="0.5" x2="0.5" y2="1" gradientUnits="objectBoundingBox">
      <stop offset="0.483" stop-color="#fc0"/>
      <stop offset="1" stop-color="#ffc" stop-opacity="0"/>
    </linearGradient>
    <linearGradient id="linear-gradient-2" x1="0.5" y1="0.113" x2="0.5" y2="0.98" gradientUnits="objectBoundingBox">
      <stop offset="0" stop-color="#fc0"/>
      <stop offset="1" stop-color="#ffc" stop-opacity="0"/>
    </linearGradient>
    <clipPath id="clip-Canvas">
      <rect width="86" height="86"/>
    </clipPath>
  </defs>
  <g id="Canvas" clip-path="url(#clip-Canvas)">
    <rect width="86" height="86" fill="rgba(0,0,0,0)"/>
    <g id="Vector_Smart_Object" data-name="Vector Smart Object" transform="translate(0.685 -21.518)">
      <g id="Group_1" data-name="Group 1">
        <path id="Path_1" data-name="Path 1" d="M46.3,59.165A24.389,24.389,0,0,1,45.258,65.2a29.857,29.857,0,0,1-1.579,3.965,19.685,19.685,0,0,1-1.649,2.915c-.209.3-.688,1.132-1.192,1.138-1.776.015-5.522-8.167-5.522-14.04,0-2.5-.138-5.769,2.2-7.639a5.378,5.378,0,0,1,5.873-.285c2.371,1.356,2.789,3.933,2.9,6.184C46.321,58,46.321,58.576,46.3,59.165Z" fill="url(#linear-gradient)"/>
        <path id="Path_2" data-name="Path 2" d="M44.809,60.13a38.961,38.961,0,0,1-.759,6.6A43.75,43.75,0,0,1,42.9,71.08a25.976,25.976,0,0,1-1.2,3.194c-.148.323-.5,1.239-.867,1.245-1.293.016-4.017-8.948-4.017-15.381,0-2.744-.1-6.319,1.6-8.366a2.88,2.88,0,0,1,4.277-.312c1.726,1.485,2.032,4.309,2.111,6.773C44.825,58.847,44.825,59.483,44.809,60.13Z" fill="url(#linear-gradient-2)"/>
        <path id="Path_3" data-name="Path 3" d="M45.486,56.124a4.987,4.987,0,0,1-.781,3.117c1.245-1.961-7.877-2.5-8.014-.2.023-.4-.641-.956-.774-1.372a5.9,5.9,0,0,1,.875-4.62A4.206,4.206,0,0,1,40.709,50.7a4.094,4.094,0,0,1,3.939,2.541A8.143,8.143,0,0,1,45.486,56.124Z" fill="#f9ed32"/>
        <path id="Path_4" data-name="Path 4" d="M37.852,59c.043-.3.1-.6.131-.918a14.94,14.94,0,0,1,.759-3.829c.5-1.32,1.493-3.291,3.326-3.533a5.218,5.218,0,0,0-4.551.818c-2.339,1.87-2.2,5.135-2.2,7.639a24.62,24.62,0,0,0,3.009,11.041,3.619,3.619,0,0,0-.148-.741,49,49,0,0,1-.369-7.623c-.025-.747-.038-1.5-.013-2.244C37.8,59.4,37.826,59.2,37.852,59Z" fill="#f7941e" opacity="0.4"/>
        <path id="Path_5" data-name="Path 5" d="M43,54.927a7.951,7.951,0,0,1,.656,1.228c.133.285.295.762.711.832.668.118.5-1.165.48-1.494a5.066,5.066,0,0,0-.656-2.233,4.436,4.436,0,0,0-1.644-1.753,1.576,1.576,0,0,0-1.143-.245.76.76,0,0,0-.422.992C41.332,53.287,42.393,54.021,43,54.927Z" fill="#fff"/>
      </g>
    </g>
  </g>
</svg>
