<svg xmlns="http://www.w3.org/2000/svg" xmlns:xlink="http://www.w3.org/1999/xlink" width="86" height="86" viewBox="0 0 86 86">
  <defs>
    <clipPath id="clip-Canvas">
      <rect width="86" height="86"/>
    </clipPath>
  </defs>
  <g id="Canvas" clip-path="url(#clip-Canvas)">
    <rect width="86" height="86" fill="rgba(0,0,0,0)"/>
    <g id="Vector_Smart_Object" data-name="Vector Smart Object" transform="translate(-50.169 -142.533)">
      <g id="Group_20" data-name="Group 20">
        <path id="Path_53" data-name="Path 53" d="M96.946,184.033a5.8,5.8,0,1,1-5.775-5.3A5.551,5.551,0,0,1,96.946,184.033Z" fill="#fbb040" stroke="#603913" stroke-miterlimit="10" stroke-width="0.428"/>
        <path id="Path_54" data-name="Path 54" d="M91.249,186.084a5.708,5.708,0,0,1-5.511-3.79,4.825,4.825,0,0,0-.345,1.739,5.8,5.8,0,0,0,11.553,0,4.787,4.787,0,0,0-.266-1.5A5.741,5.741,0,0,1,91.249,186.084Z" fill="#603913" opacity="0.3"/>
        <path id="Path_55" data-name="Path 55" d="M88.311,181.542a3.314,3.314,0,0,0,1.414-.423,12.409,12.409,0,0,1,3.363-.331c1.268-.072-.11-1.189-.652-1.327a5.533,5.533,0,0,0-4.081.58,1.569,1.569,0,0,0-.561.631.568.568,0,0,0,.4.85A.765.765,0,0,0,88.311,181.542Z" fill="#fcfbfa"/>
      </g>
    </g>
  </g>
</svg>
