<svg xmlns="http://www.w3.org/2000/svg" xmlns:xlink="http://www.w3.org/1999/xlink" width="267" height="271" viewBox="0 0 267 271">
  <defs>
    <clipPath id="clip-Canvas">
      <rect width="267" height="271"/>
    </clipPath>
  </defs>
  <g id="Canvas" clip-path="url(#clip-Canvas)">
    <rect width="267" height="271" fill="rgba(0,0,0,0)"/>
    <g id="Vector_Smart_Object" data-name="Vector Smart Object" transform="translate(-45.281 -262.238)">
      <g id="Group_28" data-name="Group 28">
        <g id="Group_27" data-name="Group 27">
          <g id="Group_26" data-name="Group 26">
            <g id="Group_18" data-name="Group 18">
              <path id="Path_77" data-name="Path 77" d="M149.412,385.767s-104.329-54.27-3.229-42.411C146.183,343.356,155.876,357.493,149.412,385.767Z" fill="#3c2415"/>
              <path id="Path_78" data-name="Path 78" d="M149.412,376.876s-104.329-43.329-3.229-33.864C146.183,343.012,155.876,354.3,149.412,376.876Z" fill="#be1e2d" stroke="#3c2415" stroke-miterlimit="10" stroke-width="1.572"/>
              <path id="Path_79" data-name="Path 79" d="M112.853,361.069a147.442,147.442,0,0,0,24.453,14.388c3.47,1.575,9.843,5.042,12.716,1.22,2.758-3.671,1.594-9.62,1.306-13.811-2.837,6.262-9.774,3.909-15.228,2.479a80.884,80.884,0,0,1-20.36-8.157c-4.907-2.841-11.852-6.611-11.483-12.847C97.279,348.909,109,358.318,112.853,361.069Z" fill="#3c2415" opacity="0.3"/>
            </g>
            <g id="Group_19" data-name="Group 19">
              <path id="Path_80" data-name="Path 80" d="M215.148,385.767s104.332-54.27,3.232-42.411C218.38,343.356,208.687,357.493,215.148,385.767Z" fill="#3c2415"/>
              <path id="Path_81" data-name="Path 81" d="M215.148,376.876s104.332-43.329,3.232-33.864C218.38,343.012,208.687,354.3,215.148,376.876Z" fill="#be1e2d" stroke="#3c2415" stroke-miterlimit="10" stroke-width="1.572"/>
              <path id="Path_82" data-name="Path 82" d="M251.71,361.069a147.441,147.441,0,0,1-24.453,14.388c-3.47,1.575-9.845,5.042-12.716,1.22-2.758-3.671-1.594-9.62-1.306-13.811,2.837,6.262,9.774,3.909,15.226,2.479a80.9,80.9,0,0,0,20.363-8.157c4.907-2.841,11.85-6.611,11.481-12.847C267.281,348.909,255.557,358.318,251.71,361.069Z" fill="#3c2415" opacity="0.3"/>
            </g>
            <g id="Group_21" data-name="Group 21">
              <g id="Group_20" data-name="Group 20">
                <path id="Path_83" data-name="Path 83" d="M212.047,313.468a6.491,6.491,0,0,1-6.618,6.355H159.972a6.489,6.489,0,0,1-6.616-6.355h0a6.489,6.489,0,0,1,6.616-6.355h45.457a6.491,6.491,0,0,1,6.618,6.355Z" fill="#3c2415"/>
                <path id="Path_84" data-name="Path 84" d="M211.228,312.2c0,2.81-2.879,5.091-6.433,5.091H160.608c-3.554,0-6.435-2.28-6.435-5.091h0c0-2.81,2.881-5.091,6.435-5.091H204.8c3.554,0,6.433,2.28,6.433,5.091Z" fill="#ef4136" stroke="#3c2415" stroke-miterlimit="10" stroke-width="1.759"/>
              </g>
              <path id="Path_85" data-name="Path 85" d="M204.864,314.366H160.673c-2.944,0-5.4-1.577-6.163-3.71a4.128,4.128,0,0,0-.338,1.549c0,2.81,2.881,5.091,6.435,5.091H204.8c3.554,0,6.433-2.28,6.433-5.091a4.086,4.086,0,0,0-.27-1.378A6.429,6.429,0,0,1,204.864,314.366Z" fill="#3c2415" opacity="0.3"/>
              <path id="Path_86" data-name="Path 86" d="M188.091,318.453a4.349,4.349,0,0,1-4.376,4.323h0a4.348,4.348,0,0,1-4.376-4.323v-4.584a4.348,4.348,0,0,1,4.376-4.323h0a4.349,4.349,0,0,1,4.376,4.323Z" fill="#bcbec0" stroke="#3c2415" stroke-miterlimit="10" stroke-width="1.759"/>
            </g>
            <path id="Path_87" data-name="Path 87" d="M221.377,361.617a65.088,65.088,0,0,1-8.126,29.9c-3.038,5.336-7.252,11.285-11.865,15.4-7.076,6.314-16.471,10.97-25.911,6.826-8.974-3.938-15-11-20.313-18.941-10.761-16.094-15.05-35.966-6.231-53.919,5.755-11.707,16.458-20.011,29.666-21.65,12.868-1.608,25.372,4.072,33.712,13.638C219,340.543,221.615,351,221.377,361.617Z" fill="#f7941e" stroke="#3c2415" stroke-miterlimit="10" stroke-width="1.966"/>
            <path id="Path_88" data-name="Path 88" d="M144.743,364.375a24.163,24.163,0,0,0,.076,2.741c.84-2.156,3.271-3.56,4.875-5.1a61.244,61.244,0,0,1,6.037-4.664,49.591,49.591,0,0,1,12.478-6.934c12.533-4.638,25.859-3.816,37.721,3.537a80.112,80.112,0,0,1,11.936,9.491c.6.561,1.227,1.166,1.782,1.794.3.341.534.915.9,1.026.246-6.854-.343-11.446-3.413-16.808a48.116,48.116,0,0,0-7.579-9.711c-7.173-7.482-15.867-12.5-25.076-12.671-13.64-.264-27.565,9.463-35.209,20.115a21.8,21.8,0,0,0-3.753,9.669A59.035,59.035,0,0,0,144.743,364.375Z" fill="#be1e2d" stroke="#3c2415" stroke-miterlimit="10" stroke-width="2.373"/>
            <path id="Path_89" data-name="Path 89" d="M205.175,356.187a56.4,56.4,0,0,0-11.567-2.976,65.843,65.843,0,0,0-22.483.773c-5.812,1.15-13.056,2.355-17.916,5.936,1.947-2.26,3.167-3.733,5.726-5.181,2.876-1.624,5.621-3.366,8.639-4.742a38.319,38.319,0,0,1,27.261-1.944A47.342,47.342,0,0,1,210,355.986a21.342,21.342,0,0,1,4.381,4.263A90.461,90.461,0,0,0,205.175,356.187Z" fill="#2f457a" opacity="0.3"/>
            <path id="Path_90" data-name="Path 90" d="M187.374,369.887a4.553,4.553,0,0,1-4.582,4.527h0a4.553,4.553,0,0,1-4.58-4.527V355.965a4.552,4.552,0,0,1,4.58-4.524h0a4.553,4.553,0,0,1,4.582,4.524Z" fill="#fff" opacity="0.3"/>
            <path id="Path_91" data-name="Path 91" d="M186.435,340.3a3.734,3.734,0,0,1-3.761,3.71h0a3.732,3.732,0,0,1-3.758-3.71v-6.5a3.734,3.734,0,0,1,3.758-3.71h0a3.736,3.736,0,0,1,3.761,3.71Z" fill="#fff" opacity="0.3"/>
            <path id="Path_92" data-name="Path 92" d="M150.673,362.653s.673,18.419,32.568,18.641c0,0,25.83,1.551,32.118-20.195C215.36,361.1,187.285,330.256,150.673,362.653Z" fill="#fff" stroke="#3c2415" stroke-miterlimit="10" stroke-width="1.966"/>
            <path id="Path_93" data-name="Path 93" d="M156.051,396.171c4.352,6.823,10.167,13.235,17.636,16.766,6.2,2.937,11.376,2.857,17.565.46A40.768,40.768,0,0,0,209.692,398.9a17.718,17.718,0,0,0,2.947-5.215c1.706-5.915-4.784-9.2-9.042-11.608a40.253,40.253,0,0,0-19.115-5.437,44.111,44.111,0,0,0-21.323,5.685c-3.536,1.929-9.858,5.334-8.764,10.052A12.238,12.238,0,0,0,156.051,396.171Z" fill="#be1e2d" stroke="#3c2415" stroke-miterlimit="10" stroke-width="2.045"/>
            <path id="Path_94" data-name="Path 94" d="M187.01,319.286c-2.51,1.854-6.3,2.477-9.136,4a36.58,36.58,0,0,0-9.28,6.7c-12.276,12.847-9.267,36.984-4.813,52.28,2.175,7.456,4.93,14.786,9.657,21.061,3.465,4.6,11.708,13.61,18.319,9.669a18.131,18.131,0,0,1-16.283.742c-8.974-3.938-15-11-20.313-18.941-10.761-16.094-15.05-35.966-6.231-53.919,5.755-11.707,16.458-20.011,29.666-21.65,1.562-.2,7.7.714,8.749-.217C187.241,319.1,187.128,319.2,187.01,319.286Z" fill="#3c2415" opacity="0.3"/>
            <g id="Group_22" data-name="Group 22">
              <path id="Path_95" data-name="Path 95" d="M145.125,377.041c0,3.04-3.394,5.509-7.581,5.509s-7.581-2.469-7.581-5.509,3.394-5.512,7.581-5.512S145.125,374,145.125,377.041Z" fill="#bcbec0" stroke="#3c2415" stroke-miterlimit="10" stroke-width="1.66"/>
              <path id="Path_96" data-name="Path 96" d="M144.406,380.17c0,3.04-3.1,5.509-6.935,5.509s-6.935-2.469-6.935-5.509,3.1-5.512,6.935-5.512S144.406,377.124,144.406,380.17Z" fill="#bcbec0" stroke="#3c2415" stroke-miterlimit="10" stroke-width="1.622"/>
              <path id="Path_97" data-name="Path 97" d="M141.912,380.17c0,1.947-1.986,3.526-4.441,3.526s-4.441-1.58-4.441-3.526,1.989-3.529,4.441-3.529S141.912,378.22,141.912,380.17Z" fill="#3c2415"/>
              <path id="Path_98" data-name="Path 98" d="M143.22,383.44a3.041,3.041,0,0,0,1.044-1.642,17.758,17.758,0,0,0,.6-4.483c-.079-1.836-1.327-4.271-3.185-4.85-1.617-.5-2.52-.075-2.591,1.675-.052,1.362,1,1.621,1.842,2.394a4.36,4.36,0,0,1,1.374,3.617,5.707,5.707,0,0,1-1.589,3.586c-.28.284-2.342,1.383-1.8,1.96.34.362,2.544-1.081,2.9-1.29A9.567,9.567,0,0,0,143.22,383.44Z" fill="#3c2415" opacity="0.3"/>
            </g>
            <g id="Group_23" data-name="Group 23">
              <path id="Path_99" data-name="Path 99" d="M130.117,366.211c0,3.04-3.394,5.509-7.581,5.509s-7.579-2.469-7.579-5.509,3.394-5.512,7.579-5.512S130.117,363.165,130.117,366.211Z" fill="#bcbec0" stroke="#3c2415" stroke-miterlimit="10" stroke-width="1.66"/>
              <path id="Path_100" data-name="Path 100" d="M129.4,369.339c0,3.038-3.1,5.507-6.935,5.507s-6.935-2.469-6.935-5.507,3.1-5.515,6.935-5.515S129.4,366.294,129.4,369.339Z" fill="#bcbec0" stroke="#3c2415" stroke-miterlimit="10" stroke-width="1.622"/>
              <path id="Path_101" data-name="Path 101" d="M126.906,369.339c0,1.947-1.989,3.524-4.441,3.524s-4.441-1.577-4.441-3.524,1.986-3.532,4.441-3.532S126.906,367.39,126.906,369.339Z" fill="#3c2415"/>
              <path id="Path_102" data-name="Path 102" d="M128.214,372.607a3.044,3.044,0,0,0,1.044-1.639,17.522,17.522,0,0,0,.6-4.483c-.076-1.838-1.324-4.271-3.185-4.853-1.615-.5-2.518-.075-2.588,1.678-.052,1.36,1,1.621,1.842,2.394a4.36,4.36,0,0,1,1.374,3.617,5.714,5.714,0,0,1-1.589,3.583c-.283.284-2.342,1.386-1.806,1.96.343.365,2.546-1.078,2.9-1.29A9.323,9.323,0,0,0,128.214,372.607Z" fill="#3c2415" opacity="0.3"/>
            </g>
            <g id="Group_24" data-name="Group 24">
              <path id="Path_103" data-name="Path 103" d="M223.217,376.6c0,3.04,3.394,5.507,7.581,5.507s7.581-2.466,7.581-5.507-3.394-5.515-7.581-5.515S223.217,373.553,223.217,376.6Z" fill="#bcbec0" stroke="#3c2415" stroke-miterlimit="10" stroke-width="1.66"/>
              <path id="Path_104" data-name="Path 104" d="M223.936,379.725c0,3.04,3.1,5.51,6.935,5.51s6.935-2.469,6.935-5.51-3.1-5.512-6.935-5.512S223.936,376.682,223.936,379.725Z" fill="#bcbec0" stroke="#3c2415" stroke-miterlimit="10" stroke-width="1.622"/>
              <path id="Path_105" data-name="Path 105" d="M226.43,379.725c0,1.949,1.986,3.527,4.441,3.527s4.441-1.577,4.441-3.527-1.989-3.529-4.441-3.529S226.43,377.778,226.43,379.725Z" fill="#3c2415"/>
              <path id="Path_106" data-name="Path 106" d="M225.122,383a3.041,3.041,0,0,1-1.044-1.642,17.62,17.62,0,0,1-.6-4.48c.079-1.838,1.324-4.274,3.185-4.85,1.617-.5,2.52-.078,2.591,1.673.052,1.363-1,1.621-1.842,2.4a4.365,4.365,0,0,0-1.377,3.614,5.724,5.724,0,0,0,1.591,3.586c.28.284,2.342,1.383,1.8,1.96-.34.362-2.544-1.078-2.9-1.29A9.432,9.432,0,0,1,225.122,383Z" fill="#3c2415" opacity="0.3"/>
            </g>
            <g id="Group_25" data-name="Group 25">
              <path id="Path_107" data-name="Path 107" d="M238.225,365.766c0,3.04,3.394,5.51,7.579,5.51s7.581-2.469,7.581-5.51-3.394-5.512-7.581-5.512S238.225,362.721,238.225,365.766Z" fill="#bcbec0" stroke="#3c2415" stroke-miterlimit="10" stroke-width="1.66"/>
              <path id="Path_108" data-name="Path 108" d="M238.942,368.895c0,3.04,3.1,5.51,6.935,5.51s6.935-2.469,6.935-5.51-3.1-5.515-6.935-5.515S238.942,365.849,238.942,368.895Z" fill="#bcbec0" stroke="#3c2415" stroke-miterlimit="10" stroke-width="1.622"/>
              <path id="Path_109" data-name="Path 109" d="M241.436,368.895c0,1.947,1.989,3.524,4.441,3.524s4.441-1.577,4.441-3.524-1.986-3.532-4.441-3.532S241.436,366.945,241.436,368.895Z" fill="#3c2415"/>
              <path id="Path_110" data-name="Path 110" d="M240.128,372.163a3.035,3.035,0,0,1-1.044-1.639,17.523,17.523,0,0,1-.6-4.483c.076-1.838,1.324-4.271,3.185-4.85,1.612-.5,2.518-.078,2.588,1.675.052,1.36-1,1.621-1.842,2.394a4.373,4.373,0,0,0-1.377,3.617,5.73,5.73,0,0,0,1.591,3.586c.28.284,2.342,1.383,1.8,1.957-.34.365-2.544-1.078-2.9-1.29A9.141,9.141,0,0,1,240.128,372.163Z" fill="#3c2415" opacity="0.3"/>
            </g>
          </g>
          <path id="Path_111" data-name="Path 111" d="M210.841,456.92c.264-1.846-3.6-2.854-15.862-1.709l-.008.013a12.351,12.351,0,0,0-2.177-3.664,14.585,14.585,0,0,0-7.893-4.7h5.415a2.29,2.29,0,1,0,0-4.576H173.949a2.29,2.29,0,1,0,0,4.576h5.587a13.822,13.822,0,0,0-9.562,7.583c-.22.447-.413.9-.589,1.352a5.349,5.349,0,0,0-.4-.587c-12.266-1.145-16.126-.137-15.862,1.709l0,.129c-.2,1.582,1.934,3.772,4.758,5.934a1.447,1.447,0,0,0-.136.582,1.4,1.4,0,0,1,.209,1.127,2.287,2.287,0,0,0,2.5,1.983,2.95,2.95,0,0,0,.5-.041.1.1,0,0,0,.013.049c.089.09.489-.132.775-.3a2.331,2.331,0,0,0,.531-.344l.005,0c.364.228.725.455,1.078.677a5.918,5.918,0,0,1,0,1.882,2.287,2.287,0,0,0,2.5,1.983,3.187,3.187,0,0,0,.5-.041c.005.013,0,.034.016.044.086.093.487-.129.772-.3a2.54,2.54,0,0,0,.534-.344,2.8,2.8,0,0,0,.249-.171,1.128,1.128,0,0,0,.22-.251c1.227.685,2.007,1.091,2.007,1.091.026-.114.042-.217.068-.333a25.33,25.33,0,0,0,2,3.586c.081.122.165.238.249.357.026.044.044.093.071.134a15.974,15.974,0,0,0,6.351,6.037c.139.067.272.116.411.173.079.039.149.08.233.116a6.785,6.785,0,0,0,.7.261.161.161,0,0,0,.047.013,5.915,5.915,0,0,0,.68.168l.065.013a5.941,5.941,0,0,0,.636.083l.17.01c.162.01.322.016.482.01.1,0,.2,0,.306-.005s.194-.018.293-.028c.183-.021.369-.044.552-.08a9.526,9.526,0,0,0,3.146-1.233,14.913,14.913,0,0,0,5.239-4.553,6.424,6.424,0,0,0,1.063-1.88,2.425,2.425,0,0,0,.071-.535c.047-.078.1-.165.149-.246a19.846,19.846,0,0,0,1.12-2.3c.531-.284,1.515-.814,2.745-1.518.013.054.024.111.034.163a1.1,1.1,0,0,0,.374.589,2.4,2.4,0,0,0,.246.168,2.5,2.5,0,0,0,.534.344c.285.171.688.39.772.3.013-.013.01-.028.016-.044a2.928,2.928,0,0,0,.5.041,2.286,2.286,0,0,0,2.5-1.986,1.552,1.552,0,0,0-.039-.313,1.5,1.5,0,0,0,.246-.812,1.662,1.662,0,0,0-.584-1.213c.327-.212.657-.424.984-.639a1.409,1.409,0,0,0,.23.253,2.25,2.25,0,0,0,.243.168,2.339,2.339,0,0,0,.536.344c.285.171.686.393.769.3.016-.013.013-.031.018-.049a2.906,2.906,0,0,0,.5.041,2.286,2.286,0,0,0,2.5-1.983,1.7,1.7,0,0,0-.039-.31,1.549,1.549,0,0,0,.246-.817,1.639,1.639,0,0,0-.542-1.174c2.334-1.908,3.978-3.782,3.8-5.181Z" fill="#3c2415" opacity="0.3"/>
        </g>
        <path id="Path_112" data-name="Path 112" d="M204.026,392.189c2.426-6.345,7.045-1.567,3.863,3.229a20.694,20.694,0,0,1-4.365,4.687c-.6.481-4.224,3.273-4.564,1.494a1.669,1.669,0,0,1,.568-1.448A18.653,18.653,0,0,0,201.051,398c.4-.633.733-1.288,1.128-1.916a15.741,15.741,0,0,0,.864-1.867C203.367,393.539,203.757,392.892,204.026,392.189Z" fill="#fff"/>
      </g>
    </g>
  </g>
</svg>
