<svg xmlns="http://www.w3.org/2000/svg" xmlns:xlink="http://www.w3.org/1999/xlink" width="267" height="271" viewBox="0 0 267 271">
  <defs>
    <clipPath id="clip-Canvas">
      <rect width="267" height="271"/>
    </clipPath>
  </defs>
  <g id="Canvas" clip-path="url(#clip-Canvas)">
    <rect width="267" height="271" fill="rgba(0,0,0,0)"/>
    <g id="Vector_Smart_Object" data-name="Vector Smart Object" transform="translate(-662.988 -260.208)">
      <g id="Group_50" data-name="Group 50">
        <g id="Group_49" data-name="Group 49">
          <ellipse id="Ellipse_1" data-name="Ellipse 1" cx="42.465" cy="33.558" rx="42.465" ry="33.558" transform="translate(759.736 347.732)" fill="#8b5e3c" stroke="#3c2415" stroke-miterlimit="10" stroke-width="2.598"/>
          <path id="Path_149" data-name="Path 149" d="M812.8,416.33c-21.365-.175-53.061-8.333-53.061-35.04,0-9.344,5.014-17.736,12.206-23.545,5.045-4.074,18.271-11.895,25.216-9.921,9.407,2.675-1.936,19.3-4.208,24.926C785.963,390.054,792.206,413.217,812.8,416.33Z" opacity="0.3"/>
          <path id="Path_150" data-name="Path 150" d="M868.849,368.878c0,19.053-30.386,34.5-67.863,34.5s-67.86-15.446-67.86-34.5,30.384-34.5,67.86-34.5S868.849,349.832,868.849,368.878Z" fill="#91bc24" stroke="#3c2415" stroke-miterlimit="10" stroke-width="2.265"/>
          <path id="Path_151" data-name="Path 151" d="M795.263,389.742a32.606,32.606,0,0,1,2.014,3.6,14.174,14.174,0,0,1,1.286,6.728c0,.448.133,1.077-.112,1.458-1.37,2.128-5.476,1.639-7.492,1.518a53.13,53.13,0,0,1-10.615-1.477c-1.615-.435-3.256-.637-4.86-1.16-2.6-.85-5.21-1.837-6.43-4.414-.55-1.157.167-3.525-.524-4.386-.543-.678-2.275-.528-3.057-.691-1.317-.273-2.794-.812-3.342-2.152-.869-2.154.316-4.141.647-6.184.336-2.079-1.7-3.481-3.133-4.842s-3.514-2.546-3.817-4.631c-.647-4.491,5.83-1.026,7.717-.289a47.666,47.666,0,0,0,13.573,3.535,17.312,17.312,0,0,1,8.679,3.383A36.907,36.907,0,0,1,795.263,389.742Z" fill="#3c2415" opacity="0.3"/>
          <path id="Path_152" data-name="Path 152" d="M851.7,359.2c0,14.35-22.878,25.98-51.1,25.98s-51.1-11.629-51.1-25.98,22.878-25.977,51.1-25.977S851.7,344.856,851.7,359.2Z" fill="#3c2415"/>
          <g id="Group_37" data-name="Group 37">
            <path id="Path_153" data-name="Path 153" d="M777.7,394.811c-.423,1.6-2.549,2.43-4.75,1.86s-3.639-2.329-3.216-3.924,2.554-2.438,4.756-1.868S778.129,393.208,777.7,394.811Z" fill="#bcbec0" stroke="#3c2415" stroke-miterlimit="10" stroke-width="0.901"/>
            <path id="Path_154" data-name="Path 154" d="M776.89,396.354c-.425,1.6-2.4,2.471-4.411,1.948s-3.3-2.244-2.872-3.84,2.4-2.471,4.414-1.948S777.315,394.757,776.89,396.354Z" fill="#bcbec0" stroke="#3c2415" stroke-miterlimit="10" stroke-width="0.881"/>
            <path id="Path_155" data-name="Path 155" d="M775.58,396.014a2.219,2.219,0,0,1-2.825,1.245,2.186,2.186,0,0,1-1.842-2.458,2.223,2.223,0,0,1,2.828-1.242A2.189,2.189,0,0,1,775.58,396.014Z" fill="#3c2415"/>
            <path id="Path_156" data-name="Path 156" d="M775.813,397.911a1.67,1.67,0,0,0,.775-.721,9.462,9.462,0,0,0,.942-2.27,3,3,0,0,0-1-2.987c-.777-.479-1.31-.379-1.591.528-.222.709.3.99.631,1.513a2.341,2.341,0,0,1,.217,2.082,3.123,3.123,0,0,1-1.336,1.67c-.188.113-1.424.407-1.221.783.13.234,1.487-.219,1.7-.283A4.974,4.974,0,0,0,775.813,397.911Z" fill="#3c2415" opacity="0.3"/>
          </g>
          <g id="Group_38" data-name="Group 38">
            <path id="Path_157" data-name="Path 157" d="M771.333,387.075c-.423,1.6-2.551,2.427-4.753,1.858s-3.637-2.329-3.209-3.925,2.551-2.433,4.748-1.863S771.761,385.475,771.333,387.075Z" fill="#bcbec0" stroke="#3c2415" stroke-miterlimit="10" stroke-width="0.901"/>
            <path id="Path_158" data-name="Path 158" d="M770.519,388.619c-.425,1.6-2.4,2.471-4.414,1.948s-3.295-2.242-2.872-3.837,2.4-2.471,4.414-1.951S770.947,387.021,770.519,388.619Z" fill="#bcbec0" stroke="#3c2415" stroke-miterlimit="10" stroke-width="0.881"/>
            <path id="Path_159" data-name="Path 159" d="M769.21,388.281a2.221,2.221,0,0,1-2.825,1.245,2.192,2.192,0,0,1-1.839-2.458,2.221,2.221,0,0,1,2.825-1.247A2.19,2.19,0,0,1,769.21,388.281Z" fill="#3c2415"/>
            <path id="Path_160" data-name="Path 160" d="M769.445,390.175a1.659,1.659,0,0,0,.772-.719,9.287,9.287,0,0,0,.939-2.27,2.992,2.992,0,0,0-.994-2.987c-.772-.484-1.312-.384-1.594.528-.217.709.3.987.634,1.51a2.362,2.362,0,0,1,.217,2.085,3.135,3.135,0,0,1-1.336,1.67c-.188.106-1.424.4-1.221.783.125.234,1.49-.222,1.7-.283A5.4,5.4,0,0,0,769.445,390.175Z" fill="#3c2415" opacity="0.3"/>
          </g>
          <path id="Path_161" data-name="Path 161" d="M811.62,388.24a32.143,32.143,0,0,0-2.014,3.595,14.211,14.211,0,0,0-1.289,6.731c0,.448-.13,1.077.112,1.459,1.372,2.128,5.478,1.636,7.492,1.515a52.938,52.938,0,0,0,10.617-1.474c1.615-.435,3.256-.636,4.863-1.162,2.593-.85,5.2-1.835,6.43-4.412.548-1.16-.17-3.525.519-4.386.545-.678,2.275-.528,3.063-.691,1.315-.273,2.791-.812,3.337-2.154.871-2.152-.316-4.138-.647-6.182a11.621,11.621,0,0,1,.905-4.589c.665-1.611,1.925-2.912,2.6-4.52.365-.881.882-2.25-.083-2.981-2.194-1.662-5.666,2.051-7.252,3.19-2.695,1.94-7.273,2.412-10.505,2.672a17.359,17.359,0,0,0-8.677,3.383A36.875,36.875,0,0,0,811.62,388.24Z" fill="#3c2415" opacity="0.3"/>
          <g id="Group_39" data-name="Group 39">
            <path id="Path_162" data-name="Path 162" d="M829.181,393.309c.423,1.6,2.549,2.43,4.748,1.86s3.637-2.329,3.214-3.927-2.551-2.435-4.753-1.866S828.751,391.706,829.181,393.309Z" fill="#bcbec0" stroke="#3c2415" stroke-miterlimit="10" stroke-width="0.901"/>
            <path id="Path_163" data-name="Path 163" d="M829.993,394.85c.425,1.6,2.4,2.471,4.409,1.948s3.3-2.242,2.875-3.837-2.4-2.471-4.411-1.951S829.567,393.252,829.993,394.85Z" fill="#bcbec0" stroke="#3c2415" stroke-miterlimit="10" stroke-width="0.881"/>
            <path id="Path_164" data-name="Path 164" d="M831.3,394.512a2.222,2.222,0,0,0,2.828,1.245,2.188,2.188,0,0,0,1.839-2.458,2.223,2.223,0,0,0-2.828-1.245A2.191,2.191,0,0,0,831.3,394.512Z" fill="#3c2415"/>
            <path id="Path_165" data-name="Path 165" d="M831.07,396.409a1.657,1.657,0,0,1-.775-.722,9.434,9.434,0,0,1-.942-2.273,3,3,0,0,1,1-2.984c.775-.479,1.307-.381,1.589.528.222.709-.295.99-.631,1.51a2.356,2.356,0,0,0-.217,2.085,3.123,3.123,0,0,0,1.336,1.67c.188.113,1.424.407,1.218.783-.125.234-1.484-.222-1.7-.283A5.622,5.622,0,0,1,831.07,396.409Z" fill="#3c2415" opacity="0.3"/>
          </g>
          <g id="Group_40" data-name="Group 40">
            <path id="Path_166" data-name="Path 166" d="M835.549,385.57c.423,1.6,2.549,2.43,4.75,1.86s3.639-2.329,3.214-3.927-2.557-2.433-4.753-1.86S835.124,383.97,835.549,385.57Z" fill="#bcbec0" stroke="#3c2415" stroke-miterlimit="10" stroke-width="0.901"/>
            <path id="Path_167" data-name="Path 167" d="M836.361,387.116c.428,1.6,2.4,2.471,4.417,1.948s3.295-2.242,2.87-3.84-2.4-2.471-4.409-1.948S835.933,385.519,836.361,387.116Z" fill="#bcbec0" stroke="#3c2415" stroke-miterlimit="10" stroke-width="0.881"/>
            <path id="Path_168" data-name="Path 168" d="M837.673,386.776a2.217,2.217,0,0,0,2.823,1.245,2.184,2.184,0,0,0,1.839-2.456,2.219,2.219,0,0,0-2.825-1.247A2.186,2.186,0,0,0,837.673,386.776Z" fill="#3c2415"/>
            <path id="Path_169" data-name="Path 169" d="M837.441,388.67a1.639,1.639,0,0,1-.775-.719,9.354,9.354,0,0,1-.942-2.27,3,3,0,0,1,.994-2.984c.777-.484,1.315-.384,1.594.528.217.709-.3.984-.634,1.51a2.356,2.356,0,0,0-.217,2.082,3.152,3.152,0,0,0,1.338,1.67c.185.108,1.424.4,1.221.783-.125.237-1.492-.219-1.706-.281A5.12,5.12,0,0,1,837.441,388.67Z" fill="#3c2415" opacity="0.3"/>
          </g>
          <g id="Group_45" data-name="Group 45">
            <g id="Group_42" data-name="Group 42">
              <g id="Group_41" data-name="Group 41">
                <path id="Path_170" data-name="Path 170" d="M807.9,330.3s47.23-42.729-4.226-22.717C803.679,307.58,800.566,316.325,807.9,330.3Z" fill="#3c2415"/>
                <path id="Path_171" data-name="Path 171" d="M806.668,325.625s48.751-36.983-3.034-18.226C803.634,307.4,800.118,314.651,806.668,325.625Z" fill="#91bc24" stroke="#3c2415" stroke-miterlimit="10" stroke-width="1.78"/>
                <path id="Path_172" data-name="Path 172" d="M823.661,312.339a79.016,79.016,0,0,1-10.834,10.887c-1.6,1.3-4.469,4-6.511,2.378-1.959-1.556-2.178-4.839-2.611-7.076,2.358,2.9,5.677.719,8.343-.776A43.551,43.551,0,0,0,821.6,310.7c2.184-2.165,5.3-5.094,4.242-8.315C830.144,303.828,825.3,310.368,823.661,312.339Z" fill="#3c2415" opacity="0.3"/>
              </g>
            </g>
            <g id="Group_44" data-name="Group 44">
              <g id="Group_43" data-name="Group 43">
                <path id="Path_173" data-name="Path 173" d="M797.843,330.3s-47.228-42.729,4.226-22.717C802.069,307.58,805.181,316.325,797.843,330.3Z" fill="#3c2415"/>
                <path id="Path_174" data-name="Path 174" d="M799.082,325.625s-48.754-36.983,3.034-18.226C802.116,307.4,805.63,314.651,799.082,325.625Z" fill="#91bc24" stroke="#3c2415" stroke-miterlimit="10" stroke-width="1.78"/>
                <path id="Path_175" data-name="Path 175" d="M782.086,312.339a79.013,79.013,0,0,0,10.834,10.887c1.607,1.3,4.469,4,6.511,2.378,1.959-1.556,2.178-4.839,2.614-7.076-2.361,2.9-5.679.719-8.343-.776a43.5,43.5,0,0,1-9.558-7.055c-2.184-2.165-5.3-5.094-4.242-8.315C775.6,303.828,780.451,310.368,782.086,312.339Z" fill="#3c2415" opacity="0.3"/>
              </g>
            </g>
          </g>
          <path id="Path_176" data-name="Path 176" d="M839.4,333.884c-18.253-13.835-32.59-10.336-36.509-8.962-3.923-1.373-18.261-4.873-36.511,8.962-2.961,2.242-3.861,11.606-3.955,15.291-.423,15.976,8.371,29.837,16.985,39.9a125.461,125.461,0,0,0,11.171,11.4c2.223,2.018,4.5,3.953,6.8,5.824,2.074,1.683,4.017,3.994,6.673,3.151,2.452-.783,4.917-3.587,7.007-5.352a136.166,136.166,0,0,0,13.677-13.16c5.914-6.594,11.463-14.2,15.073-23.253,3.65-9.168,5-20.208,1.474-29.793C840.907,336.858,840.232,334.508,839.4,333.884Z" fill="#40729a" stroke="#3c2415" stroke-miterlimit="10" stroke-width="2.598"/>
          <path id="Path_177" data-name="Path 177" d="M808.2,331.539a5.375,5.375,0,0,1-5.408,5.344h0a5.382,5.382,0,0,1-5.416-5.344V319.067a5.384,5.384,0,0,1,5.416-5.347h0a5.377,5.377,0,0,1,5.408,5.347Z" fill="#8b7d94" stroke="#3c2415" stroke-miterlimit="10" stroke-width="2.265"/>
          <g id="Group_46" data-name="Group 46">
            <path id="Path_178" data-name="Path 178" d="M809.431,397.707a5.989,5.989,0,1,1-5.99-5.914A5.954,5.954,0,0,1,809.431,397.707Z" fill="#fbb040" stroke="#3c2415" stroke-miterlimit="10" stroke-width="1.78"/>
            <path id="Path_179" data-name="Path 179" d="M800.958,396.535a9.256,9.256,0,0,1,1.641-1.185c.43-.234.965-.2,1.341-.4,1.077-.557.078-1.52-.764-1.683-1.445-.273-3.342,1.348-3.863,2.59-.172.425-.621,1.946.211,2.067C799.922,397.988,800.663,396.8,800.958,396.535Z" fill="#fff"/>
          </g>
          <g id="Group_47" data-name="Group 47">
            <path id="Path_180" data-name="Path 180" d="M796.416,385.207a5.987,5.987,0,1,1-5.99-5.911A5.952,5.952,0,0,1,796.416,385.207Z" fill="#fbb040" stroke="#3c2415" stroke-miterlimit="10" stroke-width="1.78"/>
            <path id="Path_181" data-name="Path 181" d="M787.943,384.037a9.127,9.127,0,0,1,1.641-1.185c.43-.234.965-.2,1.338-.4,1.08-.557.083-1.52-.762-1.683-1.443-.273-3.342,1.348-3.861,2.587-.175.425-.624,1.946.209,2.067C786.907,385.488,787.651,384.3,787.943,384.037Z" fill="#fff"/>
          </g>
          <g id="Group_48" data-name="Group 48">
            <path id="Path_182" data-name="Path 182" d="M822.081,383.777a5.986,5.986,0,1,1-5.982-5.911A5.952,5.952,0,0,1,822.081,383.777Z" fill="#fbb040" stroke="#3c2415" stroke-miterlimit="10" stroke-width="1.78"/>
            <path id="Path_183" data-name="Path 183" d="M813.615,382.607a8.926,8.926,0,0,1,1.638-1.185c.425-.235.965-.2,1.341-.4,1.077-.557.078-1.52-.767-1.683-1.443-.273-3.339,1.348-3.856,2.59-.183.425-.626,1.945.2,2.067C812.574,384.058,813.315,382.87,813.615,382.607Z" fill="#fff"/>
          </g>
          <path id="Path_184" data-name="Path 184" d="M837.571,349.678c0,12.33-15.214,22.321-33.984,22.321s-33.981-9.99-33.981-22.321,15.216-22.315,33.981-22.315S837.571,337.353,837.571,349.678Z" fill="#fbfdfc" stroke="#3c2415" stroke-miterlimit="10" stroke-width="2.67"/>
          <path id="Path_185" data-name="Path 185" d="M837.571,349.678c0,7.725-5.948,13.735-12.4,17.244-9.023,4.9-17.682,4.368-27.556,4.368,12.209-.082,20.332-7.063,23.977-18.144,2.262-6.86,2.695-17.685-3.77-22.589,1.716,1.3,5.486,1.105,7.529,1.989a22.71,22.71,0,0,1,6.214,4.45C835.059,340.357,837.571,344.761,837.571,349.678Z" fill="#3c2415" opacity="0.3"/>
        </g>
        <path id="Path_186" data-name="Path 186" d="M820.2,466.094c0-3.538-3.308-6.679-8.424-8.687a10.071,10.071,0,0,0-.35-1.183,3.609,3.609,0,0,0-.6-1.273,14.872,14.872,0,0,0-7.842-3.267c1.951-2,4.432-4.857,4.067-6.141a.912.912,0,0,0-.057-.224c-.214-.807-2.173-.752-7.557,1.2a3.469,3.469,0,0,0-.243.9,3.543,3.543,0,0,0-.24-.9c-5.384-1.951-7.344-2-7.557-1.2a1.061,1.061,0,0,0-.063.224c-.365,1.283,2.118,4.144,4.067,6.141a14.938,14.938,0,0,0-7.829,3.267,3.664,3.664,0,0,0-.905,1.987c-5.836,1.969-9.684,5.334-9.684,9.156,0,3.935,4.077,7.375,10.187,9.315a10.332,10.332,0,0,0,2.168,2.123,14.8,14.8,0,0,0,7.083,3,29.315,29.315,0,0,0,5.932.67,8.833,8.833,0,0,1-1.923-.536,14.006,14.006,0,0,0,10.453-5.543C816.511,473.144,820.2,469.841,820.2,466.094Z" fill="#3c2415" opacity="0.3"/>
      </g>
    </g>
  </g>
</svg>
