<svg xmlns="http://www.w3.org/2000/svg" xmlns:xlink="http://www.w3.org/1999/xlink" width="149" height="149" viewBox="0 0 149 149">
  <defs>
    <clipPath id="clip-Canvas">
      <rect width="149" height="149"/>
    </clipPath>
  </defs>
  <g id="Canvas" clip-path="url(#clip-Canvas)">
    <rect width="149" height="149" fill="rgba(0,0,0,0)"/>
    <g id="explosions">
      <g id="Vector_Smart_Object" data-name="Vector Smart Object" transform="translate(-164.724 -675.526)">
        <g id="Group_51" data-name="Group 51">
          <path id="Path_143" data-name="Path 143" d="M288.006,778.85l-15-11.015a8.206,8.206,0,0,1,1.537-.613,8.574,8.574,0,0,1,1.371-.309c.482-.068,1.028-.056,1.476-.162-.881.056-1.524-.633-2.151-1.1a17.18,17.18,0,0,1-2.022-1.975c-1.21-1.268-2.679-4.218-.211-5.051a8.694,8.694,0,0,1,1.954-.39c.388-.038,1.4-.246,1.732-.01-1.745-1.233-3.058-2.1-2.969-4.689l9.515.481-8.571-1.942a3.74,3.74,0,0,1,.991-.952c.965-.575,2.233-.438,3.185-1.033-1.851.116-4.287-1.225-4.4-3.129-.121-2.038,1.816-2.8,3.064-3.856-1.8.03-4.063-.192-5.138-1.595a2.818,2.818,0,0,1-.243-.37l19.594-4.347-18.544.851c.261-.754-.427-.7-.939-2.033-.3-.772.076-1.279.567-1.858-.572-.484-1.5-.62-1.711-1.423a3.755,3.755,0,0,1,.258-2.314,13.769,13.769,0,0,1-1.859-.114,6.591,6.591,0,0,1-1.545-.681,8.052,8.052,0,0,1-.928-.392,2.8,2.8,0,0,1-1.091-1.663,2.819,2.819,0,0,1-1.4.995,5.161,5.161,0,0,1-1.02.071L275.871,709.1l-17.237,18.332c-.725-.509-1.263-1.519-.5-2.195a2.431,2.431,0,0,1-1.964-.63,1.308,1.308,0,0,1,.071-1.861,3.817,3.817,0,0,1-2.112-.6l4.556-11.79L252.246,720.8a2.471,2.471,0,0,1-.812-1.114,4.663,4.663,0,0,1-.016-2.524c-.3,2.489-4.113,3.557-5.787,1.7-.551-.613-.817-1.567-1.263-2.078a5.791,5.791,0,0,1-.751,3.37,2.643,2.643,0,0,1-1.374,1c-.709.228-1.12-.114-1.635-.471a8.8,8.8,0,0,1-2.829-4.18,3.9,3.9,0,0,1-1.134,3.21,3.333,3.333,0,0,1-.377.258l-4.213-17.44,1.094,17.066a1.964,1.964,0,0,1-.633-.757c-.108-.068-.076-.04-.124-.162a4.244,4.244,0,0,1-1.287-2.2,14.672,14.672,0,0,1-.846,3.582,2.776,2.776,0,0,1-2.99,1.613,3.568,3.568,0,0,1-1.8-.544,5.639,5.639,0,0,1,.214,2.225,1.385,1.385,0,0,1-.411.891l-8.215-14.481,5.368,14.929a9.143,9.143,0,0,1-1.1-.03,3.409,3.409,0,0,1-.688-.228,5.533,5.533,0,0,1-2.391-2.19,3.7,3.7,0,0,0-.314-.489,5.279,5.279,0,0,1,.034,3.759,2.014,2.014,0,0,1-.567.709,3.031,3.031,0,0,0-.638-.418c.121.2.243.4.348.605a3.152,3.152,0,0,1-3.048-.387c-.153.623.227,1.245-.055,1.881a1.362,1.362,0,0,1-.235.359c-.348-.3-.654-.64-.989-.985a10.2,10.2,0,0,1-1-1.192,7.733,7.733,0,0,1-.783-1.129,9.031,9.031,0,0,0,.585,1.861,4.372,4.372,0,0,1,.461,2.484c-.324.157-.641.314-.946.481a6.067,6.067,0,0,1-.812-.392,11.88,11.88,0,0,1-1.139-.61c-.161-.1-.965-.486-1-.646a4.076,4.076,0,0,0,.414.952,7.206,7.206,0,0,1,.881,1.957,4.575,4.575,0,0,0-.366.471,6.616,6.616,0,0,0-.451.785c-.063.005-.129.008-.2.01-.546.02-1.118.073-1.64.068a2.8,2.8,0,0,0,.664.8l-16.52-5.727L206.752,736a11.236,11.236,0,0,1-1.843-.44c.649,1.357.8,3.466-.585,4.486s-2.919.522-4.282-.2c3.029,1.6,2.249,7.334-.511,8.689,1.318-.066,3.781.342,4.585,1.385.886,1.144-1.107,3.043-2.547,3.2a5.438,5.438,0,0,1,1.714,1.23l-15.557,5,17.018-2.577a4.93,4.93,0,0,1,.227,2.16c-.287,2.223-2.328,4.195-3.986,5.6,1.946-1.337,5.344-2.777,7.511-.435a3.864,3.864,0,0,1,.612,3.648l-16.688,11.868,14.548-7.114a11.151,11.151,0,0,1,3.67.486c1.6.544,2.162,1.909,3.114,2.919a3.189,3.189,0,0,1,1.329-2.375,4.5,4.5,0,0,1,2.808-.841c.013.124.034.246.055.367a.909.909,0,0,0-.1-.023,5.784,5.784,0,0,1-.066.889c-.055.243-.256.44-.277.678,1.268.392.129,1.772-.469,2.21,1.869-1.37,3.327.932,2.109,2.542a3.216,3.216,0,0,1,1.337-.517c.656,0,.96.613,1.226,1.1a4.432,4.432,0,0,1,.266,3.428,3.023,3.023,0,0,1,2.7-2.5,9.46,9.46,0,0,0,1.039.23c.069.01.134.015.2.025a1.528,1.528,0,0,1,.2.111l-5.921,17.3,9.728-17.223a1.716,1.716,0,0,1,1.265.319,3.3,3.3,0,0,1,1.345,1.795c.314-.932-.005-1.967.743-2.772a1.248,1.248,0,0,1,1.387-.268c.446.187.6.689.954.9-.013-.43-.25-.77-.2-1.243a1.662,1.662,0,0,1,.148-.527.723.723,0,0,1,.163.038.681.681,0,0,1,.3.22c.055.071.264.506.174.58a1.9,1.9,0,0,1,2.478.139,3.807,3.807,0,0,1,.477.8l1.123,16.342,1.89-15.922a2.319,2.319,0,0,1,.443.038c1.139.218,1.661,1.23,2.233,2.063a10.453,10.453,0,0,1,.965-.949,4.023,4.023,0,0,1,1.244-.549,2.356,2.356,0,0,1,1.5.071c.4.147.783.618,1.173.691l.013.058a1.528,1.528,0,0,0,.4.109c.005-.048-.013-.127.013-.167a3.106,3.106,0,0,0,.206-.762,3.2,3.2,0,0,1,.269-.742,3.271,3.271,0,0,1,.786-.924l7.163,16.167-3.891-16.481a10.564,10.564,0,0,1,3.567,2.253c-.575-1.484-1.6-6.646.912-7.137,2.193-.428,4.574,1.676,5.953,3.258a6.3,6.3,0,0,1-.551-3.534,2.7,2.7,0,0,1,.285-1.4,2.273,2.273,0,0,1,1.358-.754,9.359,9.359,0,0,1,3.29.19,23.125,23.125,0,0,1,2.684.823,3.21,3.21,0,0,1-.9-2.506,5.965,5.965,0,0,1,.066-.868Zm-65.673-54c.037-.038.069-.081.108-.119l.053.149Z" fill="#ff7f00"/>
          <path id="Path_144" data-name="Path 144" d="M236.324,773.713s9.254,7.3,17.435-2.618c0,0,8.088.747,11.982-5.8,0,0,1.851-5.147-.583-9.073,0,0,5.942-5.613.1-10.944,0,0,5.162-13.939-11.007-12.909,0,0-4.579-10.663-14.321-4.023,0,0-7.013-4.866-9.839,2.152,0,0-6.135-3.929-8.958,2.9,0,0-7.7-1.494-7.113,6.737,0,0-11.007,5.519-.488,12.722,0,0-7.11,4.866,1.658,10.663,0,0-1.951,5.894,6.818,4.866C222.006,768.384,223.077,779.045,236.324,773.713Z" fill="#ffe98d" stroke="#ff7900" stroke-width="1.763"/>
          <path id="Path_145" data-name="Path 145" d="M214.535,741.749s-5.007,3.24-.786,9.724C213.749,751.473,205.7,745.693,214.535,741.749Z" fill="#ffb948"/>
          <path id="Path_146" data-name="Path 146" d="M218.418,739.7s2.025-4.754,7.706-2.863C226.124,736.832,220.274,731.863,218.418,739.7Z" fill="#ffb948"/>
          <path id="Path_147" data-name="Path 147" d="M215.6,739.7s-.058-5.565,7.313-5.187C222.918,734.508,214.648,731.592,215.6,739.7Z" fill="#ffb948"/>
          <path id="Path_148" data-name="Path 148" d="M222.075,734.346s1.969-4.375,9.338-1.782C231.413,732.564,224.719,727.648,222.075,734.346Z" fill="#ffb948"/>
          <path id="Path_149" data-name="Path 149" d="M233.888,731.594s5.233-3.405,11.758,1.944C245.647,733.539,240.021,724.516,233.888,731.594Z" fill="#ffb948"/>
          <path id="Path_150" data-name="Path 150" d="M230.962,730.944a8.18,8.18,0,0,1,7.485-.919l1.294-.646S233.327,725.7,230.962,730.944Z" fill="#ffb948"/>
          <path id="Path_151" data-name="Path 151" d="M240.527,729.053s7.709-2.375,12.433,3.405C252.96,732.458,248.233,723.055,240.527,729.053Z" fill="#ffb948"/>
          <path id="Path_152" data-name="Path 152" d="M254.031,733.916s10.519,2.215,10.3,12.263C264.326,746.179,268.6,731.865,254.031,733.916Z" fill="#ffb948"/>
          <path id="Path_153" data-name="Path 153" d="M250.6,740.885s7.653.486,9.734,5.349C260.332,746.235,258.586,738.184,250.6,740.885Z" fill="#ffb948"/>
          <path id="Path_154" data-name="Path 154" d="M216.161,760.612s-4.769-3.086-.749-9.261C215.413,751.351,207.749,756.858,216.161,760.612Z" fill="#ffb948"/>
          <path id="Path_155" data-name="Path 155" d="M219.86,762.567s1.93,4.529,7.34,2.727C227.2,765.293,221.629,770.027,219.86,762.567Z" fill="#ffb948"/>
          <path id="Path_156" data-name="Path 156" d="M217.179,762.567s-.055,5.3,6.965,4.939C224.144,767.506,216.269,770.286,217.179,762.567Z" fill="#ffb948"/>
          <path id="Path_157" data-name="Path 157" d="M223.34,767.66s1.877,4.167,8.9,1.7C232.235,769.356,225.858,774.04,223.34,767.66Z" fill="#ffb948"/>
          <path id="Path_158" data-name="Path 158" d="M234.592,770.283s4.985,3.243,11.2-1.851C245.792,768.432,240.435,777.025,234.592,770.283Z" fill="#ffb948"/>
          <path id="Path_159" data-name="Path 159" d="M231.806,770.9a7.782,7.782,0,0,0,7.126.876l1.234.618S234.057,775.893,231.806,770.9Z" fill="#ffb948"/>
          <path id="Path_160" data-name="Path 160" d="M240.914,772.7s7.342,2.266,11.843-3.24C252.757,769.46,248.257,778.415,240.914,772.7Z" fill="#ffb948"/>
          <path id="Path_161" data-name="Path 161" d="M253.775,768.07s10.021-2.109,9.8-11.679C263.58,756.392,267.653,770.025,253.775,768.07Z" fill="#ffb948"/>
          <path id="Path_162" data-name="Path 162" d="M250.508,761.435s7.287-.463,9.27-5.1C259.778,756.339,258.114,764.007,250.508,761.435Z" fill="#ffb948"/>
          <path id="Path_163" data-name="Path 163" d="M234.371,734.622a1.811,1.811,0,0,1,.332-.777,4.086,4.086,0,0,1-2.019.663,1.115,1.115,0,0,1-.91-1.408,1.718,1.718,0,0,1-.514.585c-.206.144-.5.446-.77.491-.435.071-.941-.511-1.255-.737.208.152.137.691.105.9a1.151,1.151,0,0,1-.456.853c-.446.276-1.062-.276-1.258-.613a1.865,1.865,0,0,1,.343,1.405c-.042.225-.082.509-.345.587a1.363,1.363,0,0,1-.6-.046c.7.5.417,1.595-.509,1.271a1.2,1.2,0,0,1,.588.413,1.964,1.964,0,0,1,.2.481c-.042.246-.076.5-.1.777,0,0,2.613-5.213,8.276-3.8,0,0-.322-.172-.838-.38A.857.857,0,0,1,234.371,734.622Z" fill="#ff7f00"/>
          <g id="Group_46" data-name="Group 46">
            <path id="Path_164" data-name="Path 164" d="M254.616,736.84a1.937,1.937,0,0,1,.846-.208,4.046,4.046,0,0,1-1.761-1.16,1.107,1.107,0,0,1,.635-1.544,1.76,1.76,0,0,1-.8-.048,2.341,2.341,0,0,1-.87-.3c-.319-.294-.134-1.03-.132-1.408,0,.253-.5.519-.7.62a1.245,1.245,0,0,1-.981.159c-.5-.18-.406-.985-.243-1.334a1.93,1.93,0,0,1-.968,1.1c-.214.1-.475.241-.7.084a1.216,1.216,0,0,1-.322-.491c0,.835-1.086,1.273-1.368.365a1.1,1.1,0,0,1,.008.7,1.889,1.889,0,0,1-.282.441c-.229.116-.467.243-.709.387,0,0,5.913-1.1,8.115,4.111a8.142,8.142,0,0,0-.185-.876A.865.865,0,0,1,254.616,736.84Z" fill="#ff7f00"/>
            <path id="Path_165" data-name="Path 165" d="M243.171,734.078s9,.053,12.151,5.511C255.322,739.589,253.917,729.972,243.171,734.078Z" fill="#ffb948"/>
          </g>
          <g id="Group_47" data-name="Group 47">
            <path id="Path_166" data-name="Path 166" d="M248.033,765.883a1.769,1.769,0,0,1-.021.838,3.939,3.939,0,0,1,1.637-1.311,1.16,1.16,0,0,1,1.376,1.005,1.657,1.657,0,0,1,.264-.722c.134-.205.3-.59.535-.724.382-.215,1.068.157,1.447.261-.253-.071-.385-.6-.435-.81a1.127,1.127,0,0,1,.108-.952c.316-.413,1.1-.106,1.4.142a1.934,1.934,0,0,1-.841-1.2c-.042-.223-.111-.5.105-.666a1.365,1.365,0,0,1,.58-.165c-.836-.225-.981-1.347.005-1.362a1.232,1.232,0,0,1-.7-.182,1.9,1.9,0,0,1-.364-.38c-.055-.245-.119-.5-.2-.762,0,0-.506,5.765-6.325,6.382,0,0,.366.051.925.066A.89.89,0,0,1,248.033,765.883Z" fill="#ff7f00"/>
            <path id="Path_167" data-name="Path 167" d="M253.912,756.058s-2.5,8.3-8.827,9.732C245.085,765.789,255.106,767.1,253.912,756.058Z" fill="#ffb948"/>
          </g>
          <path id="Path_168" data-name="Path 168" d="M226.715,740.493a9.64,9.64,0,0,1,9.583-4.714S227.79,732.1,226.715,740.493Z" fill="#ffb948"/>
          <g id="Group_48" data-name="Group 48">
            <path id="Path_169" data-name="Path 169" d="M218.228,747.5a1.891,1.891,0,0,1-.659-.552A3.715,3.715,0,0,1,217.58,749a1.2,1.2,0,0,1-1.682.377,1.677,1.677,0,0,1,.409.656,2.13,2.13,0,0,1,.24.858c-.071.418-.8.689-1.131.9.219-.142.728.1.928.195a1.191,1.191,0,0,1,.7.686c.129.494-.614.878-1.007.947a2.072,2.072,0,0,1,1.495.139c.208.111.475.241.467.5a1.221,1.221,0,0,1-.237.534c.714-.476,1.706.134,1.089.871a1.184,1.184,0,0,1,.6-.4,2.1,2.1,0,0,1,.54-.028c.227.116.472.23.733.339,0,0-4.3-4.048-1.091-8.747a8.6,8.6,0,0,0-.643.643A.947.947,0,0,1,218.228,747.5Z" fill="#ff7f00"/>
            <path id="Path_170" data-name="Path 170" d="M221.566,756.349s-4.564-4.511-1.577-10.228C219.989,746.121,213.63,752.68,221.566,756.349Z" fill="#ffb948"/>
          </g>
          <g id="Group_49" data-name="Group 49">
            <path id="Path_171" data-name="Path 171" d="M259.206,746.637a1.912,1.912,0,0,0,.659-.549,3.681,3.681,0,0,0-.008,2.048,1.194,1.194,0,0,0,1.682.377,1.665,1.665,0,0,0-.411.656,2.13,2.13,0,0,0-.24.856c.071.418.807.694,1.131.906-.219-.144-.728.1-.925.195a1.179,1.179,0,0,0-.7.684c-.129.5.612.881,1.007.949a2.079,2.079,0,0,0-1.5.139c-.208.111-.472.238-.467.5a1.234,1.234,0,0,0,.237.534c-.714-.476-1.706.132-1.089.871a1.193,1.193,0,0,0-.6-.405,2.346,2.346,0,0,0-.54-.028c-.227.117-.469.23-.733.342,0,0,4.3-4.046,1.091-8.747a8.291,8.291,0,0,1,.646.643A.94.94,0,0,0,259.206,746.637Z" fill="#ff7f00"/>
            <path id="Path_172" data-name="Path 172" d="M255.868,755.483s4.564-4.514,1.577-10.228C257.445,745.255,263.8,751.815,255.868,755.483Z" fill="#ffb948"/>
          </g>
          <g id="Group_50" data-name="Group 50">
            <path id="Path_173" data-name="Path 173" d="M229.987,766.865a1.823,1.823,0,0,1-.5.691,4.147,4.147,0,0,1,2.12-.235,1.106,1.106,0,0,1,.577,1.565,1.726,1.726,0,0,1,.63-.463,2.331,2.331,0,0,1,.862-.324c.44.02.8.694,1.062.98-.171-.192.018-.7.1-.906a1.184,1.184,0,0,1,.633-.739c.5-.177.981.489,1.094.856a1.851,1.851,0,0,1-.021-1.443c.092-.21.2-.479.469-.5a1.385,1.385,0,0,1,.58.167c-.572-.628-.05-1.641.78-1.134a1.166,1.166,0,0,1-.485-.524,1.946,1.946,0,0,1-.087-.511c.095-.233.187-.476.272-.739,0,0-3.715,4.554-8.932,2.008a9.035,9.035,0,0,0,.736.544A.834.834,0,0,1,229.987,766.865Z" fill="#ff7f00"/>
            <path id="Path_174" data-name="Path 174" d="M238.774,762.706a9.8,9.8,0,0,1-10.409,2.633S235.853,770.683,238.774,762.706Z" fill="#ffb948"/>
          </g>
        </g>
      </g>
    </g>
  </g>
</svg>
