<svg xmlns="http://www.w3.org/2000/svg" xmlns:xlink="http://www.w3.org/1999/xlink" width="149" height="149" viewBox="0 0 149 149">
  <defs>
    <clipPath id="clip-Canvas">
      <rect width="149" height="149"/>
    </clipPath>
  </defs>
  <g id="Canvas" clip-path="url(#clip-Canvas)">
    <rect width="149" height="149" fill="rgba(0,0,0,0)"/>
    <g id="explosions">
      <g id="Vector_Smart_Object" data-name="Vector Smart Object" transform="translate(-652.258 -673.768)">
        <g id="Group_72" data-name="Group 72">
          <path id="Path_288" data-name="Path 288" d="M688.167,755.464c.165-1.544.568-2.961-.707-4.03-1.443-1.209-2.433-.693-3.6.322-.058,1.188-.736,2.052-.521,3.331.16.932,1,1.788,1.019,2.75.042,2.364-3.375,2.938-2.807,5.787.372,1.869,1.692,3.986,2.315,5.9.542,1.666,1.226,4.944,3.085,5.5.935.828,1.823.97,2.312,2.351.419,1.186.016,2.653.385,3.87.731,2.384,3,3.651,5.256,4.581,2.676,1.1,13.494,4.144,12.929-2.166-.188-2.115-3.52-2.844-5.12-3.7-2.38-1.272-4.316-2.227-4.868-4.964-.571-2.841.139-4.654-2.095-6.8-1.4-1.346-3.627-1.861-4.3-3.748-.623-1.742-.634-2.917-1.872-4.36A5.132,5.132,0,0,1,688.167,755.464Z" fill="#ffe98d" stroke="#ff7900" stroke-width="1.563"/>
          <path id="Path_289" data-name="Path 289" d="M685.433,724.967c-.2,1.295-.374,2.874.3,3.854,4.114.668,3.255-4.405,4.813-6.553,1.307-1.8,2.689-1.8,4.714-1.821A6.345,6.345,0,0,0,700,717.888c1.391-1.6.848-3.311-.644-4.377-3.614-2.582-5.381,4.03-8.178,4.469-1.666.262-3.412-.155-4.583,1.353-.982,1.267-.775,3.184-1.011,4.7C685.543,724.317,685.488,724.632,685.433,724.967Z" fill="#ffe98d" stroke="#ff7900" stroke-width="1.136"/>
          <path id="Path_290" data-name="Path 290" d="M739.392,789.31a2.209,2.209,0,0,1-1.3,1.569c-2.9,1.544-7.547,1.092-9.042-2.125-2.833-6.1,9.681-6.058,12.832-5.9,2.64.132,5.3-.328,6.913-2.628.817-1.158.513-2.785,1.4-3.885,1.134-1.412,2.25-.744,3.753-.429,4,.84.828-6.9,2.978-8.341,1.933-1.292,4.973-1.887,6.72-.02,3.645,3.893-1.747,6.962-3.834,9.923-1.291,1.833-1.034,4.146-2.257,5.99-1.325,1.988-3.847,2.5-6.049,3.072-2.949.772-9.037-1.975-11.3.6A3.967,3.967,0,0,0,739.392,789.31Z" fill="#ffe98d" stroke="#ff7900" stroke-width="1.367"/>
          <path id="Path_291" data-name="Path 291" d="M760.271,744.777c1.267.6,4.007.163,5.049-.231,3.54-1.336,4.088-6.454,3.933-9.671-.209-4.273-4.452-7.384-8.262-8.572,0,0-2.608-23.543-24.967-11.279-.094.053-2.579-1.81-2.789-1.932a18.175,18.175,0,0,0-7.047-2.5,12.007,12.007,0,0,0-8.723,2.425c-1.93,1.473-6.607,7.168-1.665,8.432,1.624.416,3.1-1.381,3.986-2.506,2.53-.518,5.989-.536,7.652,1.686,1.511,2.016,1.26,4.807,4.7,5.208,3.022.355,4.08-2.524,6.544-3.529,2.867-1.17,6.015.038,7.932,1.912.948.927,2.543,2.656,2.928,4.058.568,2.107-.492,4.291-.4,6.315.22,4.959,4.824,4.969,8.841,5.195,1.105,1.262.828,3.75,1.946,4.763A1.446,1.446,0,0,0,760.271,744.777Z" fill="#ffe98d" stroke="#ff7900" stroke-width="1.759"/>
          <path id="Path_292" data-name="Path 292" d="M686.023,755.027s-4.834,8.016,5.837,14.552C691.86,769.579,676.226,766.605,686.023,755.027Z" fill="#ffb948"/>
          <path id="Path_293" data-name="Path 293" d="M686.051,746.417s-4.491-6.972,3.3-12.294C689.354,734.123,677.276,736.773,686.051,746.417Z" fill="#ffb948"/>
          <path id="Path_294" data-name="Path 294" d="M683.446,749.926s-7.508-5.132-.175-13.973C683.27,735.953,671.7,743.54,683.446,749.926Z" fill="#ffb948"/>
          <path id="Path_295" data-name="Path 295" d="M682.273,736.855s-4.038-6.551,6.261-13.318C688.534,723.537,675.747,727.29,682.273,736.855Z" fill="#ffb948"/>
          <path id="Path_296" data-name="Path 296" d="M701.531,709.189s6.549-7.348,18.831-1.686C720.362,707.5,707.881,695.8,701.531,709.189Z" fill="#ffb948"/>
          <path id="Path_297" data-name="Path 297" d="M696.772,709.356a12.7,12.7,0,0,1,11.061-4.408l1.7-1.518S698.145,700.312,696.772,709.356Z" fill="#ffb948"/>
          <path id="Path_298" data-name="Path 298" d="M714.053,719.393s9.3-8.567,20.2-3.382C734.249,716.011,720.765,705.6,714.053,719.393Z" fill="#ffb948"/>
          <path id="Path_299" data-name="Path 299" d="M736.82,717.4s16.613-3.819,23.487,10.822C760.308,728.224,756.162,704.73,736.82,717.4Z" fill="#ffb948"/>
          <path id="Path_300" data-name="Path 300" d="M740.133,709.115s11.276-4.4,17.731,1.224C757.864,710.339,749.61,699.893,740.133,709.115Z" fill="#ffb948"/>
          <path id="Path_301" data-name="Path 301" d="M701.85,781.149s-9.024-1.275-7.7-12.858C694.146,768.291,687.143,781.342,701.85,781.149Z" fill="#ffb948"/>
          <path id="Path_302" data-name="Path 302" d="M678.25,768.228s-1.655,9.141,10.692,11.672C688.943,779.9,673.22,782.383,678.25,768.228Z" fill="#ffb948"/>
          <path id="Path_303" data-name="Path 303" d="M702.46,787.38s-8.917,1.848-11.837-9.458C690.624,777.922,688.741,792.519,702.46,787.38Z" fill="#ffb948"/>
          <path id="Path_304" data-name="Path 304" d="M708.528,785.565s6,5.243,12.439-.96C720.967,784.605,716.4,795.147,708.528,785.565Z" fill="#ffb948"/>
          <path id="Path_305" data-name="Path 305" d="M704.7,787.352s3.716,7.678,13.486,2.478C718.188,789.831,708.929,799.091,704.7,787.352Z" fill="#ffb948"/>
          <path id="Path_306" data-name="Path 306" d="M717.149,790.59s5.664,4.761,13.921-3.481C731.07,787.109,725.316,798.113,717.149,790.59Z" fill="#ffb948"/>
          <path id="Path_307" data-name="Path 307" d="M739.1,789.148s9.44,1.351,14.667-10.139C753.769,779.009,752.271,794.972,739.1,789.148Z" fill="#ffb948"/>
          <path id="Path_308" data-name="Path 308" d="M735.566,791.895a12.21,12.21,0,0,0,10.8-3.491l2.2.071S742.351,797.593,735.566,791.895Z" fill="#ffb948"/>
          <path id="Path_309" data-name="Path 309" d="M749.864,788.419s12.1-1.628,14.591-12.571C764.456,775.848,764.437,791.763,749.864,788.419Z" fill="#ffb948"/>
          <path id="Path_310" data-name="Path 310" d="M765.1,767.453s12.8-9.72,5.643-23.38C770.746,744.073,786.322,761.022,765.1,767.453Z" fill="#ffb948"/>
          <path id="Path_311" data-name="Path 311" d="M755.683,760.062s10.077-5.525,9.592-13.526C765.275,746.536,768.391,758.7,755.683,760.062Z" fill="#ffb948"/>
        </g>
      </g>
    </g>
  </g>
</svg>
