<svg xmlns="http://www.w3.org/2000/svg" xmlns:xlink="http://www.w3.org/1999/xlink" width="149" height="149" viewBox="0 0 149 149">
  <defs>
    <linearGradient id="linear-gradient" x1="0.767" y1="-0.12" x2="0.148" y2="1.317" gradientUnits="objectBoundingBox">
      <stop offset="0" stop-color="#ff0"/>
      <stop offset="1" stop-color="#f90"/>
    </linearGradient>
    <linearGradient id="linear-gradient-2" x1="0.767" y1="-0.12" x2="0.148" y2="1.317" xlink:href="#linear-gradient"/>
    <linearGradient id="linear-gradient-3" x1="0.767" y1="-0.12" x2="0.148" y2="1.317" xlink:href="#linear-gradient"/>
    <linearGradient id="linear-gradient-7" x1="0.767" y1="-0.121" x2="0.148" y2="1.318" xlink:href="#linear-gradient"/>
    <linearGradient id="linear-gradient-8" x1="0.767" y1="-0.12" x2="0.148" y2="1.318" xlink:href="#linear-gradient"/>
    <linearGradient id="linear-gradient-9" x1="0.767" y1="-0.12" x2="0.148" y2="1.317" xlink:href="#linear-gradient"/>
    <linearGradient id="linear-gradient-10" x1="0.767" y1="-0.12" x2="0.148" y2="1.317" xlink:href="#linear-gradient"/>
    <clipPath id="clip-Canvas">
      <rect width="149" height="149"/>
    </clipPath>
  </defs>
  <g id="Canvas" clip-path="url(#clip-Canvas)">
    <rect width="149" height="149" fill="rgba(0,0,0,0)"/>
    <g id="Coin_Box" data-name="Coin Box">
      <g id="Vector_Smart_Object" data-name="Vector Smart Object" transform="translate(-1099.395 -379.478)">
        <g id="Group_113" data-name="Group 113">
          <g id="Group_111" data-name="Group 111">
            <path id="Path_418" data-name="Path 418" d="M1214.78,486.555l-38.733,19.923-39.942-19.688,39.238-17.974Z" fill="#5b5b5b" opacity="0.3"/>
            <path id="Path_419" data-name="Path 419" d="M1209.04,462.041l-32.6,16.771-33.619-16.573,33.03-15.129Z" fill="#ddd3a8" stroke="#600" stroke-miterlimit="10" stroke-width="2.528"/>
            <path id="Path_420" data-name="Path 420" d="M1199.537,474.679,1176.754,486.4l-23.49-11.58,23.078-10.571Z" fill="#a3a3a3" stroke="#5b5b5b" stroke-miterlimit="10" stroke-width="2.528"/>
            <path id="Path_421" data-name="Path 421" d="M1175.739,447.59l.6,16.656-34.115,20.829-.167-22.49,33.787-15.475" fill="red" stroke="#600" stroke-miterlimit="10" stroke-width="2.528"/>
            <g id="Group_110" data-name="Group 110">
              <g id="Group_100" data-name="Group 100">
                <path id="Path_422" data-name="Path 422" d="M1184.1,467.426c0,3.376-5.874,6.112-13.126,6.112s-13.112-2.736-13.112-6.112,5.874-6.112,13.112-6.112S1184.1,464.05,1184.1,467.426Z" fill="#930"/>
                <path id="Path_423" data-name="Path 423" d="M1183.562,465.663c0,3.071-5.641,5.559-12.591,5.559s-12.577-2.488-12.577-5.559,5.634-5.555,12.577-5.555S1183.562,462.6,1183.562,465.663Z" stroke="#930" stroke-miterlimit="10" stroke-width="1.06" fill="url(#linear-gradient)"/>
              </g>
              <g id="Group_101" data-name="Group 101">
                <path id="Path_424" data-name="Path 424" d="M1184.1,463.215c0,3.376-5.874,6.112-13.126,6.112s-13.112-2.736-13.112-6.112,5.874-6.115,13.112-6.115S1184.1,459.836,1184.1,463.215Z" fill="#930"/>
                <path id="Path_425" data-name="Path 425" d="M1183.562,461.453c0,3.071-5.641,5.559-12.591,5.559s-12.577-2.488-12.577-5.559,5.634-5.559,12.577-5.559S1183.562,458.385,1183.562,461.453Z" stroke="#930" stroke-miterlimit="10" stroke-width="1.06" fill="url(#linear-gradient-2)"/>
              </g>
              <g id="Group_102" data-name="Group 102">
                <path id="Path_426" data-name="Path 426" d="M1184.1,459.127c0,3.376-5.874,6.112-13.126,6.112s-13.112-2.736-13.112-6.112,5.874-6.109,13.112-6.109S1184.1,455.752,1184.1,459.127Z" fill="#930"/>
                <path id="Path_427" data-name="Path 427" d="M1183.562,457.368c0,3.068-5.641,5.555-12.591,5.555s-12.577-2.488-12.577-5.555,5.634-5.559,12.577-5.559S1183.562,454.3,1183.562,457.368Z" stroke="#930" stroke-miterlimit="10" stroke-width="1.06" fill="url(#linear-gradient-3)"/>
              </g>
              <g id="Group_103" data-name="Group 103">
                <path id="Path_428" data-name="Path 428" d="M1184.1,454.668c0,3.376-5.874,6.112-13.126,6.112s-13.112-2.736-13.112-6.112,5.874-6.112,13.112-6.112S1184.1,451.293,1184.1,454.668Z" fill="#930"/>
                <path id="Path_429" data-name="Path 429" d="M1183.562,452.909c0,3.068-5.641,5.555-12.591,5.555s-12.577-2.488-12.577-5.555,5.634-5.559,12.577-5.559S1183.562,449.839,1183.562,452.909Z" stroke="#930" stroke-miterlimit="10" stroke-width="1.06" fill="url(#linear-gradient-3)"/>
              </g>
              <g id="Group_104" data-name="Group 104">
                <path id="Path_430" data-name="Path 430" d="M1184.1,450.458c0,3.376-5.874,6.112-13.126,6.112s-13.112-2.736-13.112-6.112,5.874-6.112,13.112-6.112S1184.1,447.082,1184.1,450.458Z" fill="#930"/>
                <path id="Path_431" data-name="Path 431" d="M1183.562,448.7c0,3.064-5.641,5.555-12.591,5.555s-12.577-2.491-12.577-5.555,5.634-5.559,12.577-5.559S1183.562,445.628,1183.562,448.7Z" stroke="#930" stroke-miterlimit="10" stroke-width="1.06" fill="url(#linear-gradient-3)"/>
              </g>
              <g id="Group_105" data-name="Group 105">
                <path id="Path_432" data-name="Path 432" d="M1184.1,446.373c0,3.376-5.874,6.109-13.126,6.109s-13.112-2.733-13.112-6.109,5.874-6.112,13.112-6.112S1184.1,443,1184.1,446.373Z" fill="#930"/>
                <path id="Path_433" data-name="Path 433" d="M1183.562,444.611c0,3.071-5.641,5.559-12.591,5.559s-12.577-2.488-12.577-5.559,5.634-5.555,12.577-5.555S1183.562,441.543,1183.562,444.611Z" stroke="#930" stroke-miterlimit="10" stroke-width="1.06" fill="url(#linear-gradient)"/>
              </g>
              <g id="Group_106" data-name="Group 106">
                <path id="Path_434" data-name="Path 434" d="M1193.859,478.676c0,3.379-5.877,6.112-13.122,6.112s-13.122-2.733-13.122-6.112,5.874-6.112,13.122-6.112S1193.859,475.3,1193.859,478.676Z" fill="#930"/>
                <path id="Path_435" data-name="Path 435" d="M1193.324,476.917c0,3.068-5.637,5.555-12.588,5.555s-12.584-2.488-12.584-5.555,5.637-5.555,12.584-5.555S1193.324,473.849,1193.324,476.917Z" stroke="#930" stroke-miterlimit="10" stroke-width="1.06" fill="url(#linear-gradient-7)"/>
              </g>
              <g id="Group_107" data-name="Group 107">
                <path id="Path_436" data-name="Path 436" d="M1193.859,474.217c0,3.376-5.877,6.112-13.122,6.112s-13.122-2.736-13.122-6.112,5.874-6.112,13.122-6.112S1193.859,470.841,1193.859,474.217Z" fill="#930"/>
                <path id="Path_437" data-name="Path 437" d="M1193.324,472.458c0,3.068-5.637,5.555-12.588,5.555s-12.584-2.488-12.584-5.555,5.637-5.559,12.584-5.559S1193.324,469.387,1193.324,472.458Z" stroke="#930" stroke-miterlimit="10" stroke-width="1.06" fill="url(#linear-gradient-8)"/>
              </g>
              <g id="Group_108" data-name="Group 108">
                <path id="Path_438" data-name="Path 438" d="M1193.859,470.006c0,3.376-5.877,6.112-13.122,6.112s-13.122-2.736-13.122-6.112,5.874-6.112,13.122-6.112S1193.859,466.631,1193.859,470.006Z" fill="#930"/>
                <path id="Path_439" data-name="Path 439" d="M1193.324,468.247c0,3.068-5.637,5.555-12.588,5.555s-12.584-2.488-12.584-5.555,5.637-5.559,12.584-5.559S1193.324,465.176,1193.324,468.247Z" stroke="#930" stroke-miterlimit="10" stroke-width="1.06" fill="url(#linear-gradient-9)"/>
              </g>
              <g id="Group_109" data-name="Group 109">
                <path id="Path_440" data-name="Path 440" d="M1193.859,465.922c0,3.376-5.877,6.112-13.122,6.112s-13.122-2.736-13.122-6.112,5.874-6.112,13.122-6.112S1193.859,462.546,1193.859,465.922Z" fill="#930"/>
                <path id="Path_441" data-name="Path 441" d="M1193.324,464.159c0,3.071-5.637,5.559-12.588,5.559s-12.584-2.488-12.584-5.559,5.637-5.555,12.584-5.555S1193.324,461.092,1193.324,464.159Z" stroke="#930" stroke-miterlimit="10" stroke-width="1.06" fill="url(#linear-gradient-10)"/>
              </g>
            </g>
            <path id="Path_442" data-name="Path 442" d="M1175.843,501.944l33.11-16.564V461.96l-33.11,16.564Z" fill="#f30" stroke="#600" stroke-miterlimit="10" stroke-width="2.528"/>
            <path id="Path_443" data-name="Path 443" d="M1195.518,492.7c2.294-1.159,4.65-2.2,6.985-3.286,1.553-.722,3.69-1.2,5.037-2.266,2.705-2.137,2.287-6.6.953-9.355-1.6,1.09-2.716,3.107-4.341,4.379a8.447,8.447,0,0,1-6.189,2.117c.007-2.74-3.926.47-4.7,1.391-2.1,2.511-5.167,5.758-8.322,7.02a16.055,16.055,0,0,1-5.884,1.02c-1.094.013-1.241-.623-2.171.477-1.276,1.511-1.087,5.155-.442,6.864,2.363.278,5.315-2.458,7.42-3.329C1187.779,496.1,1191.729,494.613,1195.518,492.7Z" fill="#5b5b5b" opacity="0.3"/>
            <path id="Path_444" data-name="Path 444" d="M1197.963,481.5c.226,2.263,2.781.994,2.726-.672C1200.627,479.119,1197.826,480.156,1197.963,481.5Z" fill="#5b5b5b" opacity="0.3"/>
            <path id="Path_445" data-name="Path 445" d="M1195.676,481.743c.124,1.219,1.5.533,1.464-.361C1197.113,480.461,1195.6,481.021,1195.676,481.743Z" fill="#5b5b5b" opacity="0.3"/>
            <path id="Path_446" data-name="Path 446" d="M1175.846,501.944l-33.111-16.564V461.96l33.111,16.564Z" fill="#930" stroke="#600" stroke-miterlimit="10" stroke-width="2.528"/>
            <path id="Path_447" data-name="Path 447" d="M1159.58,486.971c.226,2.263,2.777.994,2.726-.672C1162.244,484.589,1159.443,485.626,1159.58,486.971Z" fill="#4c2501" opacity="0.3"/>
            <path id="Path_448" data-name="Path 448" d="M1160.622,483.916c.123,1.216,1.495.533,1.464-.361C1162.056,482.634,1160.55,483.191,1160.622,483.916Z" fill="#4c2501" opacity="0.3"/>
            <path id="Path_449" data-name="Path 449" d="M1173.326,501.351a1.975,1.975,0,0,0,2.311-.918c.576-.848.2-1.587.175-2.554-.027-1.01.093-1.978.024-2.972-.058-.851.264-1.948-.25-2.726-.477-.712-2.064-.1-2.956-.083a19.67,19.67,0,0,1-6.556-1.355c-2.184-.716-5.112-1-6.943-2.428-2.537-1.988,1.588-3.319.35-5.251-.895-1.4-2.458.066-3.494.451-1.711.636-3.3-.017-4.811-.752a15.814,15.814,0,0,0-2.493-1.371c-.576-.146-1.162.026-1.684-.318a4.709,4.709,0,0,1-.916-1.116,23.342,23.342,0,0,1-1.512-1.954c-.274-.441-.439-1.564-1.214-1.342-.85.242-.909,2.06-.929,2.713-.041,1.325-.422,2.736.01,4.025.926,2.779,4.029,4.247,6.6,5.439,2.987,1.391,6.536,1.971,9.279,3.747,2.7,1.756,5.9,2.859,8.507,4.711C1168.828,498.721,1170.943,500.523,1173.326,501.351Z" fill="#4c2501" opacity="0.3"/>
            <path id="Path_450" data-name="Path 450" d="M1142.816,462.239l-7.146,6.051,31.8,15.629,7.132-5.961Z" fill="#ddd3a8" stroke="#600" stroke-miterlimit="10" stroke-width="2.528"/>
            <path id="Path_451" data-name="Path 451" d="M1176.663,478.356l6.309,5.3,32.216-16.028-6.235-5.666Z" fill="#ddd3a8" stroke="#600" stroke-miterlimit="10" stroke-width="2.528"/>
          </g>
          <g id="Group_112" data-name="Group 112">
            <path id="Path_452" data-name="Path 452" d="M1176.814,426.569l9.828-20.564,9.332,8.451-16.093,16.7Z" fill="#5b5b5b"/>
            <path id="Path_453" data-name="Path 453" d="M1168.315,427.974l-2.719-22.5,12.53,2.509-4.721,22.357Z" fill="#5b5b5b"/>
          </g>
        </g>
      </g>
    </g>
  </g>
</svg>
