<svg xmlns="http://www.w3.org/2000/svg" xmlns:xlink="http://www.w3.org/1999/xlink" width="171" height="171" viewBox="0 0 171 171">
  <defs>
    <clipPath id="clip-Canvas">
      <rect width="171" height="171"/>
    </clipPath>
  </defs>
  <g id="Canvas" clip-path="url(#clip-Canvas)">
    <rect width="171" height="171" fill="rgba(0,0,0,0)"/>
    <g id="Vector_Smart_Object" data-name="Vector Smart Object" transform="translate(-551.952 -922.742)">
      <g id="Group_28" data-name="Group 28">
        <g id="Group_20" data-name="Group 20">
          <path id="Path_35" data-name="Path 35" d="M636.888,971.836a6.474,6.474,0,1,1-6.464-6.094A6.289,6.289,0,0,1,636.888,971.836Z" fill="#fff"/>
          <path id="Path_36" data-name="Path 36" d="M636.476,969.758a6.291,6.291,0,0,1-6.433,5.836,6.433,6.433,0,0,1-6.053-4.017c0,.087-.027.172-.027.259a6.474,6.474,0,0,0,12.925,0A5.782,5.782,0,0,0,636.476,969.758Z" fill="#eae8e9"/>
        </g>
        <g id="Group_21" data-name="Group 21">
          <path id="Path_37" data-name="Path 37" d="M642.11,983.368c0,6.03-5.178,10.914-11.567,10.914s-11.57-4.884-11.57-10.914,5.181-10.91,11.57-10.91S642.11,977.344,642.11,983.368Z" fill="#fff"/>
          <path id="Path_38" data-name="Path 38" d="M641.376,979.649A11.267,11.267,0,0,1,629.854,990.1a11.52,11.52,0,0,1-10.832-7.195c-.007.159-.048.307-.048.466,0,6.03,5.181,10.914,11.57,10.914s11.567-4.884,11.567-10.914A10.3,10.3,0,0,0,641.376,979.649Z" fill="#eae8e9"/>
        </g>
        <g id="Group_22" data-name="Group 22">
          <path id="Path_39" data-name="Path 39" d="M645.267,1012.218c0,7.671-6.591,13.888-14.723,13.888s-14.723-6.217-14.723-13.888,6.591-13.888,14.723-13.888S645.267,1004.548,645.267,1012.218Z" fill="#fff"/>
          <path id="Path_40" data-name="Path 40" d="M644.33,1007.48c-.336,7.389-6.742,13.3-14.661,13.3a14.654,14.654,0,0,1-13.787-9.156c-.01.2-.062.392-.062.6,0,7.671,6.591,13.888,14.723,13.888s14.723-6.217,14.723-13.888A13.129,13.129,0,0,0,644.33,1007.48Z" fill="#eae8e9"/>
        </g>
        <g id="Group_23" data-name="Group 23">
          <path id="Path_41" data-name="Path 41" d="M627.538,1025.164c0,5.884-5.058,10.651-11.292,10.651s-11.292-4.767-11.292-10.651,5.054-10.652,11.292-10.652S627.538,1019.28,627.538,1025.164Z" fill="#fff"/>
          <path id="Path_42" data-name="Path 42" d="M626.821,1021.53a11,11,0,0,1-11.247,10.2,11.234,11.234,0,0,1-10.571-7.02c-.01.155-.048.3-.048.456,0,5.884,5.054,10.651,11.292,10.651s11.292-4.767,11.292-10.651A10.15,10.15,0,0,0,626.821,1021.53Z" fill="#eae8e9"/>
        </g>
        <g id="Group_24" data-name="Group 24">
          <path id="Path_43" data-name="Path 43" d="M661.953,1044.088c0,5.884-5.058,10.655-11.292,10.655s-11.3-4.771-11.3-10.655,5.058-10.651,11.3-10.651S661.953,1038.208,661.953,1044.088Z" fill="#fff"/>
          <path id="Path_44" data-name="Path 44" d="M661.232,1040.457a10.993,10.993,0,0,1-11.244,10.2,11.247,11.247,0,0,1-10.575-7.02c-.007.155-.048.3-.048.453,0,5.884,5.058,10.655,11.3,10.655s11.292-4.771,11.292-10.655A10.063,10.063,0,0,0,661.232,1040.457Z" fill="#eae8e9"/>
        </g>
        <g id="Group_25" data-name="Group 25">
          <path id="Path_45" data-name="Path 45" d="M647.555,1031.1c0,9.163-7.871,16.587-17.581,16.587s-17.585-7.425-17.585-16.587,7.871-16.584,17.585-16.584S647.555,1021.938,647.555,1031.1Z" fill="#fff"/>
          <path id="Path_46" data-name="Path 46" d="M646.437,1025.439c-.4,8.826-8.053,15.882-17.509,15.882a17.5,17.5,0,0,1-16.466-10.933c-.01.24-.072.466-.072.709,0,9.163,7.871,16.587,17.585,16.587s17.581-7.425,17.581-16.587A15.7,15.7,0,0,0,646.437,1025.439Z" fill="#eae8e9"/>
        </g>
        <g id="Group_26" data-name="Group 26">
          <path id="Path_47" data-name="Path 47" d="M627.541,1038.111c0,5.884-5.058,10.655-11.292,10.655s-11.3-4.771-11.3-10.655,5.058-10.651,11.3-10.651S627.541,1032.23,627.541,1038.111Z" fill="#fff"/>
          <path id="Path_48" data-name="Path 48" d="M626.821,1034.476a10.993,10.993,0,0,1-11.244,10.2A11.241,11.241,0,0,1,605,1037.654c-.007.155-.048.3-.048.456,0,5.884,5.058,10.655,11.3,10.655s11.292-4.771,11.292-10.655A10.094,10.094,0,0,0,626.821,1034.476Z" fill="#eae8e9"/>
        </g>
        <g id="Group_27" data-name="Group 27">
          <path id="Path_49" data-name="Path 49" d="M655.564,1028.941c0,5.881-5.058,10.651-11.292,10.651s-11.3-4.771-11.3-10.651,5.058-10.651,11.3-10.651S655.564,1023.057,655.564,1028.941Z" fill="#fff"/>
          <path id="Path_50" data-name="Path 50" d="M654.843,1025.307a10.993,10.993,0,0,1-11.244,10.2,11.238,11.238,0,0,1-10.575-7.02c-.007.155-.048.3-.048.456,0,5.881,5.058,10.651,11.3,10.651s11.292-4.771,11.292-10.651A10.082,10.082,0,0,0,654.843,1025.307Z" fill="#eae8e9"/>
        </g>
      </g>
    </g>
  </g>
</svg>
