<svg xmlns="http://www.w3.org/2000/svg" xmlns:xlink="http://www.w3.org/1999/xlink" width="345" height="600" viewBox="0 0 345 600">
  <defs>
    <clipPath id="clip-path">
      <rect id="crop" width="537" height="649" transform="translate(0 729.224)" fill="none"/>
    </clipPath>
    <linearGradient id="linear-gradient" x1="0.498" y1="0.017" x2="0.502" y2="0.985" gradientUnits="objectBoundingBox">
      <stop offset="0" stop-color="#6cf"/>
      <stop offset="1" stop-color="#fff"/>
    </linearGradient>
    <clipPath id="clip-path-2">
      <rect id="Rectangle_3" data-name="Rectangle 3" width="368.527" height="609.259" transform="translate(63.759 729.224)" fill="none"/>
    </clipPath>
    <clipPath id="clip-Canvas">
      <rect width="345" height="600"/>
    </clipPath>
  </defs>
  <g id="Canvas" clip-path="url(#clip-Canvas)">
    <rect width="345" height="600" fill="rgba(0,0,0,0)"/>
    <g id="loading_Screen" data-name="loading Screen" transform="translate(20 -1)">
      <g id="Vector_Smart_Object" data-name="Vector Smart Object" transform="translate(-92 -735.224)" clip-path="url(#clip-path)">
        <rect id="Rectangle_1" data-name="Rectangle 1" width="368.527" height="609.259" transform="translate(63.759 729.224)" fill="url(#linear-gradient)"/>
        <rect id="Rectangle_2" data-name="Rectangle 2" width="368.527" height="609.259" transform="translate(63.759 729.224)" fill="url(#linear-gradient)"/>
        <g id="Group_3" data-name="Group 3">
          <g id="Group_2" data-name="Group 2" clip-path="url(#clip-path-2)">
            <path id="Path_1" data-name="Path 1" d="M521.7,1236.864a13.684,13.684,0,0,0-11.4,6.869,13.772,13.772,0,0,0-5.056-3.036c0-.26.014-.52,0-.786-.361-7.088-6.745-12.56-14.266-12.218a13.537,13.537,0,0,0-12.23,8.688,19.11,19.11,0,0,0-5.274-.5,18.788,18.788,0,0,0-8.116,2.246,33.57,33.57,0,0,0-29.216-14.1l-.056,0c0-.228.014-.453,0-.681-.48-9.42-8.963-16.687-18.951-16.234a18.406,18.406,0,0,0-13.478,6.659,54.085,54.085,0,0,0-31.433-8.235c-18.673.848-34.56,10.892-43,25.264a14.78,14.78,0,0,0-3.1-.195,14.4,14.4,0,0,0-7.682,2.607,18.4,18.4,0,0,0-16.351-8.2,18.6,18.6,0,0,0-11.037,4.213c-2.99-10.084-13.035-17.261-24.6-16.737a24.732,24.732,0,0,0-18.171,9.008c-5.062-17.349-22.328-29.707-42.182-28.805a41.892,41.892,0,0,0-34.967,21.121,14.73,14.73,0,0,0-1.891-.051c-7.572.343-13.42,6.414-13.055,13.561a12.24,12.24,0,0,0,.726,3.552,31.519,31.519,0,0,0-15.218,14.516,18.891,18.891,0,0,0-9.477-2.051,18.206,18.206,0,0,0-15,8.879,14.373,14.373,0,0,0-5.628-.868c-7.574.342-13.42,6.414-13.055,13.559s6.8,12.655,14.375,12.313a14.08,14.08,0,0,0,8.809-3.571,18.738,18.738,0,0,0,12.242,3.794c.389-.019.768-.067,1.151-.107a14.02,14.02,0,0,0,11.825,5.411,14.6,14.6,0,0,0,3.792-.691,33.442,33.442,0,0,0,21.753,6.667,34.674,34.674,0,0,0,4.959-.584,22.07,22.07,0,0,0,33.234,1.044,36.253,36.253,0,0,0,18.2,3.911,35.874,35.874,0,0,0,18.5-6.068,25.273,25.273,0,0,0,15.583,4.265c11.513-.633,20.669-8.714,22.556-18.989a19.056,19.056,0,0,0,6.11.726,18.6,18.6,0,0,0,2.064-.215c2.687,14.958,16.853,26.005,33.318,25.257a33.422,33.422,0,0,0,15.9-4.806A53.9,53.9,0,0,0,377.23,1303.5a52.554,52.554,0,0,0,41.569-22.969,34.229,34.229,0,0,0,20.516,5.615,33.079,33.079,0,0,0,28.069-17.462,18.976,18.976,0,0,0,7.83,1.312,18.2,18.2,0,0,0,15.03-8.935,13.972,13.972,0,0,0,11.075,4.578,13.673,13.673,0,0,0,11.4-6.869,14.02,14.02,0,0,0,10.293,3.767c7.519-.339,13.315-6.363,12.954-13.451S529.216,1236.521,521.7,1236.864Z" fill="#dcecf9"/>
            <path id="Path_2" data-name="Path 2" d="M519.324,1300.388a17.874,17.874,0,0,0-15.222,8.229,17.706,17.706,0,0,0-6.35-4.23c.022-.339.054-.676.054-1.018,0-9.208-7.914-16.672-17.675-16.672a17.679,17.679,0,0,0-16.423,10.535,24.809,24.809,0,0,0-6.8-.951,24.483,24.483,0,0,0-10.666,2.433,43.267,43.267,0,0,0-36.921-19.984l-.071,0c.014-.3.048-.59.048-.889,0-12.231-10.509-22.144-23.481-22.144a24,24,0,0,0-17.9,7.836,69.851,69.851,0,0,0-40.186-12.524c-24.249,0-45.5,12.083-57.384,30.207a19.056,19.056,0,0,0-4-.436,18.773,18.773,0,0,0-10.13,2.925,23.715,23.715,0,0,0-20.64-11.581,24.262,24.262,0,0,0-14.583,4.81c-3.2-13.245-15.746-23.136-30.76-23.136a32.293,32.293,0,0,0-24.142,10.6c-5.411-22.781-26.966-39.8-52.751-39.8-19.929,0-37.326,10.17-46.7,25.307a18.834,18.834,0,0,0-2.447-.178c-9.837,0-17.814,7.522-17.814,16.8a15.884,15.884,0,0,0,.706,4.647,41.209,41.209,0,0,0-20.681,17.916,24.386,24.386,0,0,0-12.142-3.217A23.762,23.762,0,0,0-5.775,1296.5a18.629,18.629,0,0,0-7.237-1.458c-9.837,0-17.812,7.522-17.812,16.8s7.975,16.8,17.812,16.8a18.348,18.348,0,0,0,11.648-4.11,24.178,24.178,0,0,0,15.611,5.637c.506,0,1-.039,1.5-.071a18.066,18.066,0,0,0,14.964,7.707,18.863,18.863,0,0,0,4.959-.672,43.166,43.166,0,0,0,27.744,9.923,44.82,44.82,0,0,0,6.463-.47,28.621,28.621,0,0,0,42.994,3.313,47.33,47.33,0,0,0,47.7-.634,32.656,32.656,0,0,0,19.911,6.444c14.96-.14,27.357-10.076,30.482-23.276a24.717,24.717,0,0,0,7.87,1.3,25,25,0,0,0,2.689-.157c2.49,19.539,20.116,34.687,41.5,34.687a43.556,43.556,0,0,0,20.913-5.295,69.572,69.572,0,0,0,43.789,15.259c22.943,0,43.2-10.814,55.38-27.317a44.206,44.206,0,0,0,26.214,8.48c16.183,0,30.262-8.472,37.527-20.971a24.476,24.476,0,0,0,10.061,2.16,23.753,23.753,0,0,0,20.064-10.688,18.239,18.239,0,0,0,29.272-1.647,18.1,18.1,0,0,0,13.083,5.489c9.763,0,17.677-7.464,17.677-16.67S529.087,1300.388,519.324,1300.388Z" fill="#eef8ff"/>
            <g id="Group_1" data-name="Group 1">
              <path id="Path_3" data-name="Path 3" d="M86.983,865.95a6.092,6.092,0,0,1,5.128,2.946,6.1,6.1,0,0,1,2.213-1.392c0-.118-.012-.23-.008-.352a5.9,5.9,0,0,1,6.205-5.547,6.022,6.022,0,0,1,5.517,3.743,8.507,8.507,0,0,1,2.336-.268A8.4,8.4,0,0,1,112,866a14.863,14.863,0,0,1,12.821-6.519l.024,0c0-.1-.01-.2-.006-.3a7.844,7.844,0,0,1,8.243-7.376,8.191,8.191,0,0,1,6.048,2.832A23.966,23.966,0,0,1,153,850.7a23.3,23.3,0,0,1,19.338,10.823,6.471,6.471,0,0,1,4.81.971,8.144,8.144,0,0,1,7.174-3.782,8.272,8.272,0,0,1,4.939,1.767A10.729,10.729,0,0,1,200,852.827a11,11,0,0,1,8.154,3.831c2.07-7.746,9.606-13.383,18.425-13.165a18.654,18.654,0,0,1,15.734,9.056,6.213,6.213,0,0,1,.837-.041,5.908,5.908,0,0,1,5.931,5.9,5.356,5.356,0,0,1-.286,1.581,14.055,14.055,0,0,1,6.9,6.307,8.351,8.351,0,0,1,4.181-1,8.106,8.106,0,0,1,6.749,3.807,6.34,6.34,0,0,1,2.49-.44,5.759,5.759,0,1,1-.323,11.5,6.277,6.277,0,0,1-3.945-1.5,8.307,8.307,0,0,1-5.4,1.795c-.173,0-.341-.022-.512-.039a6.188,6.188,0,0,1-5.191,2.51,6.344,6.344,0,0,1-1.691-.273,14.794,14.794,0,0,1-9.585,3.157,14.988,14.988,0,0,1-2.207-.215,9.792,9.792,0,0,1-14.738.765,16.2,16.2,0,0,1-16.31-.623,11.2,11.2,0,0,1-6.872,2.034,10.632,10.632,0,0,1-10.2-8.222,8.383,8.383,0,0,1-2.7.376,8.72,8.72,0,0,1-.919-.077c-1.04,6.663-7.213,11.693-14.528,11.51a14.873,14.873,0,0,1-7.1-1.988,23.876,23.876,0,0,1-15.125,4.844,23.383,23.383,0,0,1-18.681-9.816,15.162,15.162,0,0,1-9.047,2.678,14.719,14.719,0,0,1-12.635-7.5,8.432,8.432,0,0,1-3.463.653,8.1,8.1,0,0,1-6.761-3.827,6.179,6.179,0,0,1-4.868,2.132,6.1,6.1,0,0,1-5.128-2.946,6.21,6.21,0,0,1-4.528,1.767,5.715,5.715,0,1,1,.319-11.405Z" fill="#fff"/>
              <path id="Path_4" data-name="Path 4" d="M86.664,877.356c-2.427-.06-4.145-1.477-5.511-3.228,1.605,2.147,5.122,1.653,7.37.855,1.959-.694,1.957-1.231,3.655-.165,1.272.8,1.2,1.634,3.1,1.8,1.673.146,2.488-.464,3.913-1.078,2.157-.928,2.465-1.155,3.977.2,2.036,1.829,6.074,3.915,4.387-.537,3.9,1.127,7.687.176,11.809.369-1.072,1.136-4.116,3.189-5.725,2.5,1.111,2.633,2.979,4.978,6.287,5.682,1.139.243,15.21-1.056,13.274-3.225,1.917,2.145,2.861,4.847,5.124,7.015a13.839,13.839,0,0,0,8.112,3.85c5.318.545,17.907-.062,18.554-6.964,2.933,4.756,11.057,2.506,14.956.8,4.681-2.044,6.4-3.558,6.983-8.356-.443,2.113,3.723,3.052,5.066,1.842,2.076-1.87-1.845-3.429-3.248-3.973,2.248,1.37,7.989.827,10.591.38,2.856-.49,5.118-2.738,7.814-3.2-1.8,2.042-7.566,3.739-3.248,6.895,3.112,2.274,8.178.91,9.8-2.032,1.179,1.679,1.847,3.045,4.354,2.9,2.294-.129,2.951-1.222,3.495-3.221-.181,3.236,2.675,3.608,5.267,2.454a5.9,5.9,0,0,0,3.915-5.785c1.9,3.73,7.289,1.445,9.485-1.052,2.907-3.3.621-6.594-.141-9.975,1.893.384,4-2.693,4.32-4.185a7.253,7.253,0,0,0-1.718-5.66c3.4.642,6.513,2.45,6.408,6.135a5.356,5.356,0,0,1-.286,1.581,14.055,14.055,0,0,1,6.9,6.307,8.351,8.351,0,0,1,4.181-1,8.106,8.106,0,0,1,6.749,3.807,6.34,6.34,0,0,1,2.49-.44,5.759,5.759,0,1,1-.323,11.5,6.277,6.277,0,0,1-3.945-1.5,8.307,8.307,0,0,1-5.4,1.795c-.173,0-.341-.022-.512-.039a6.188,6.188,0,0,1-5.191,2.51,6.344,6.344,0,0,1-1.691-.273,14.794,14.794,0,0,1-9.585,3.157,14.988,14.988,0,0,1-2.207-.215,9.792,9.792,0,0,1-14.738.765,16.2,16.2,0,0,1-16.31-.623,11.2,11.2,0,0,1-6.872,2.034,10.632,10.632,0,0,1-10.2-8.222,8.383,8.383,0,0,1-2.7.376,8.72,8.72,0,0,1-.919-.077c-1.04,6.663-7.213,11.693-14.528,11.51a14.873,14.873,0,0,1-7.1-1.988,23.876,23.876,0,0,1-15.125,4.844,23.383,23.383,0,0,1-18.681-9.816,15.162,15.162,0,0,1-9.047,2.678,14.719,14.719,0,0,1-12.635-7.5,8.432,8.432,0,0,1-3.463.653,8.1,8.1,0,0,1-6.761-3.827,6.179,6.179,0,0,1-4.868,2.132,6.1,6.1,0,0,1-5.128-2.946A6.21,6.21,0,0,1,86.664,877.356Z" fill="#c7dcf2" opacity="0.2"/>
            </g>
          </g>
        </g>
      </g>
    </g>
  </g>
</svg>
